# MagicaVoxel @ Ephtracy

# group
g Private Red

# material
mtllib Private Red.mtl
usemtl palette

# normals
vn -1 0 0
vn 1 0 0
vn 0 0 1
vn 0 0 -1
vn 0 -1 0
vn 0 1 0

# texcoords
vt 0.0644531 0.5
vt 0.251953 0.5
vt 0.958984 0.5

# verts
v -9 0 1
v -9 0 -6
v -9 1 1
v -9 1 -6
v -8 0 3
v -8 0 1
v -8 0 -6
v -8 0 -8
v -8 1 3
v -8 1 1
v -8 1 -6
v -8 1 -8
v -8 12 6
v -8 12 4
v -8 13 7
v -8 13 6
v -8 13 4
v -8 13 3
v -8 14 3
v -8 14 2
v -8 15 7
v -8 15 2
v -7 0 4
v -7 0 3
v -7 0 -8
v -7 0 -9
v -7 1 4
v -7 1 3
v -7 1 -0
v -7 1 -5
v -7 1 -8
v -7 1 -9
v -7 3 -0
v -7 3 -5
v -7 12 10
v -7 12 8
v -7 12 4
v -7 12 3
v -7 13 8
v -7 13 7
v -7 13 4
v -7 13 3
v -7 13 -3
v -7 14 10
v -7 14 9
v -7 14 3
v -7 14 2
v -7 15 9
v -7 15 8
v -7 15 7
v -7 15 5
v -7 15 2
v -7 16 9
v -7 16 8
v -7 16 5
v -7 16 4
v -7 16 2
v -7 16 -3
v -7 17 10
v -7 17 9
v -7 17 7
v -7 17 6
v -7 17 4
v -7 17 3
v -7 18 11
v -7 18 10
v -7 18 8
v -7 18 7
v -7 18 6
v -7 18 5
v -7 19 12
v -7 19 11
v -7 19 9
v -7 19 8
v -7 19 5
v -7 19 3
v -7 20 13
v -7 20 12
v -7 20 10
v -7 20 9
v -7 21 14
v -7 21 13
v -7 21 11
v -7 21 10
v -7 22 15
v -7 22 14
v -7 22 12
v -7 22 11
v -7 23 16
v -7 23 15
v -7 23 13
v -7 23 12
v -7 24 17
v -7 24 16
v -7 24 14
v -7 24 13
v -7 25 18
v -7 25 17
v -7 25 15
v -7 25 14
v -7 26 16
v -7 26 15
v -7 27 18
v -7 27 16
v -6 0 5
v -6 0 4
v -6 0 -9
v -6 0 -10
v -6 1 5
v -6 1 4
v -6 1 2
v -6 1 -0
v -6 1 -5
v -6 1 -7
v -6 1 -9
v -6 1 -10
v -6 3 2
v -6 3 -0
v -6 3 -5
v -6 3 -7
v -6 13 -3
v -6 13 -4
v -6 16 -0
v -6 16 -3
v -6 17 -0
v -6 17 -4
v -6 25 -0
v -6 25 -5
v -6 28 -0
v -6 28 -5
v -5 0 6
v -5 0 5
v -5 0 -10
v -5 0 -11
v -5 1 6
v -5 1 5
v -5 1 3
v -5 1 2
v -5 1 -7
v -5 1 -8
v -5 1 -10
v -5 1 -11
v -5 3 3
v -5 3 2
v -5 3 -0
v -5 3 -5
v -5 3 -7
v -5 3 -8
v -5 5 -0
v -5 5 -5
v -5 13 -4
v -5 13 -5
v -5 15 3
v -5 15 2
v -5 16 3
v -5 16 2
v -5 17 -4
v -5 17 -5
v -5 23 -0
v -5 23 -5
v -5 25 2
v -5 25 -0
v -5 25 -5
v -5 25 -7
v -5 28 2
v -5 28 -0
v -5 28 -5
v -5 28 -7
v -5 29 -0
v -5 29 -5
v -4 1 4
v -4 1 3
v -4 1 -8
v -4 1 -9
v -4 3 4
v -4 3 3
v -4 3 1
v -4 3 -0
v -4 3 -5
v -4 3 -6
v -4 3 -8
v -4 3 -9
v -4 5 1
v -4 5 -0
v -4 5 -5
v -4 5 -6
v -4 13 -0
v -4 13 -5
v -4 17 -0
v -4 17 -5
v -4 23 1
v -4 23 -0
v -4 23 -5
v -4 23 -6
v -4 25 3
v -4 25 2
v -4 25 1
v -4 25 -0
v -4 25 -5
v -4 25 -6
v -4 25 -7
v -4 25 -8
v -4 28 3
v -4 28 2
v -4 28 1
v -4 28 -0
v -4 28 -5
v -4 28 -6
v -4 28 -7
v -4 28 -8
v -4 29 1
v -4 29 -0
v -4 29 -5
v -4 29 -6
v -4 30 -0
v -4 30 -5
v -3 0 7
v -3 0 6
v -3 0 -11
v -3 0 -12
v -3 1 7
v -3 1 6
v -3 1 -11
v -3 1 -12
v -3 3 2
v -3 3 1
v -3 3 -6
v -3 3 -7
v -3 5 2
v -3 5 1
v -3 5 -0
v -3 5 -5
v -3 5 -6
v -3 5 -7
v -3 13 1
v -3 13 -0
v -3 16 1
v -3 16 -0
v -3 23 2
v -3 23 1
v -3 23 -0
v -3 23 -5
v -3 23 -6
v -3 23 -7
v -3 25 2
v -3 25 1
v -3 25 -6
v -3 25 -7
v -3 28 2
v -3 28 1
v -3 28 -6
v -3 28 -7
v -3 29 2
v -3 29 1
v -3 29 -0
v -3 29 -5
v -3 29 -6
v -3 29 -7
v -3 30 1
v -3 30 -0
v -3 30 -1
v -3 30 -4
v -3 30 -5
v -3 30 -6
v -3 31 -1
v -3 31 -4
v -2 1 5
v -2 1 4
v -2 1 -9
v -2 1 -10
v -2 3 5
v -2 3 4
v -2 3 3
v -2 3 2
v -2 3 -7
v -2 3 -8
v -2 3 -9
v -2 3 -10
v -2 5 3
v -2 5 2
v -2 5 1
v -2 5 -6
v -2 5 -7
v -2 5 -8
v -2 13 2
v -2 13 1
v -2 16 2
v -2 16 1
v -2 23 3
v -2 23 2
v -2 23 1
v -2 23 -6
v -2 23 -7
v -2 23 -8
v -2 25 4
v -2 25 3
v -2 25 2
v -2 25 -7
v -2 25 -8
v -2 25 -9
v -2 28 4
v -2 28 3
v -2 28 2
v -2 28 -7
v -2 28 -8
v -2 28 -9
v -2 29 3
v -2 29 2
v -2 29 1
v -2 29 -6
v -2 29 -7
v -2 29 -8
v -2 30 2
v -2 30 1
v -2 30 -0
v -2 30 -1
v -2 30 -4
v -2 30 -5
v -2 30 -6
v -2 30 -7
v -2 31 -0
v -2 31 -1
v -2 31 -4
v -2 31 -5
v -2 32 -1
v -2 32 -4
v -1 30 1
v -1 30 -0
v -1 30 -5
v -1 30 -6
v -1 31 1
v -1 31 -0
v -1 31 -1
v -1 31 -4
v -1 31 -5
v -1 31 -6
v -1 32 -0
v -1 32 -1
v -1 32 -4
v -1 32 -5
v -1 34 -1
v -1 34 -4
v 0 13 8
v 0 13 7
v 0 13 6
v 0 21 8
v 0 21 7
v 0 21 6
v 1 11 8
v 1 11 7
v 1 11 6
v 1 13 8
v 1 13 7
v 1 13 6
v 2 10 8
v 2 10 7
v 2 10 6
v 2 11 8
v 2 11 7
v 2 11 6
v 3 9 8
v 3 9 7
v 3 9 6
v 3 10 8
v 3 10 7
v 3 10 6
v 3 13 3
v 3 13 2
v 3 16 3
v 3 16 2
v 4 8 8
v 4 8 7
v 4 8 6
v 4 9 8
v 4 9 7
v 4 9 6
v 5 13 8
v 5 13 7
v 5 14 8
v 5 14 7
v 5 15 8
v 5 15 7
v 5 16 8
v 5 16 7
v 6 7 8
v 6 7 7
v 6 7 6
v 6 8 8
v 6 8 7
v 6 8 6
v 6 9 8
v 6 9 7
v 6 12 6
v 6 12 4
v 6 13 8
v 6 13 7
v 6 13 4
v 6 13 3
v 6 15 6
v 6 15 3
v 6 16 8
v 6 16 7
v 6 20 8
v 6 20 7
v 9 9 8
v 9 9 7
v 9 10 8
v 9 10 7
v 10 10 8
v 10 10 7
v 10 11 8
v 10 11 7
v 11 11 8
v 11 11 7
v 11 13 8
v 11 13 7
v 12 13 8
v 12 13 7
v 12 14 8
v 12 14 7
v 12 15 8
v 12 15 7
v 12 20 8
v 12 20 7
v -6 12 10
v -6 12 8
v -6 12 4
v -6 12 3
v -6 13 8
v -6 13 7
v -6 13 4
v -6 13 3
v -6 14 10
v -6 14 9
v -6 14 7
v -6 14 6
v -6 15 9
v -6 15 8
v -6 15 6
v -6 15 5
v -6 16 9
v -6 16 8
v -6 16 5
v -6 16 4
v -6 17 10
v -6 17 9
v -6 17 7
v -6 17 6
v -6 17 4
v -6 17 3
v -6 18 11
v -6 18 10
v -6 18 8
v -6 18 7
v -6 18 6
v -6 18 5
v -6 19 12
v -6 19 11
v -6 19 9
v -6 19 8
v -6 19 5
v -6 19 3
v -6 20 13
v -6 20 12
v -6 20 10
v -6 20 9
v -6 21 14
v -6 21 13
v -6 21 11
v -6 21 10
v -6 22 15
v -6 22 14
v -6 22 12
v -6 22 11
v -6 23 16
v -6 23 15
v -6 23 13
v -6 23 12
v -6 24 17
v -6 24 16
v -6 24 14
v -6 24 13
v -6 25 18
v -6 25 17
v -6 25 15
v -6 25 14
v -6 26 16
v -6 26 15
v -6 27 18
v -6 27 16
v -5 12 6
v -5 12 4
v -5 13 7
v -5 13 6
v -5 13 4
v -5 13 3
v -5 14 7
v -5 14 6
v -5 15 6
v -5 15 3
v -2 13 3
v -2 13 2
v -2 16 3
v -2 16 2
v 1 13 8
v 1 13 7
v 1 14 8
v 1 14 7
v 1 15 8
v 1 15 7
v 1 20 8
v 1 20 7
v 2 11 8
v 2 11 7
v 2 13 8
v 2 13 7
v 2 30 1
v 2 30 -0
v 2 30 -5
v 2 30 -6
v 2 31 1
v 2 31 -0
v 2 31 -1
v 2 31 -4
v 2 31 -5
v 2 31 -6
v 2 32 -0
v 2 32 -1
v 2 32 -4
v 2 32 -5
v 2 34 -1
v 2 34 -4
v 3 1 5
v 3 1 4
v 3 1 -9
v 3 1 -10
v 3 3 5
v 3 3 4
v 3 3 3
v 3 3 2
v 3 3 -7
v 3 3 -8
v 3 3 -9
v 3 3 -10
v 3 5 3
v 3 5 2
v 3 5 1
v 3 5 -6
v 3 5 -7
v 3 5 -8
v 3 10 8
v 3 10 7
v 3 11 8
v 3 11 7
v 3 13 2
v 3 13 1
v 3 16 2
v 3 16 1
v 3 23 3
v 3 23 2
v 3 23 1
v 3 23 -6
v 3 23 -7
v 3 23 -8
v 3 25 4
v 3 25 3
v 3 25 2
v 3 25 -7
v 3 25 -8
v 3 25 -9
v 3 28 4
v 3 28 3
v 3 28 2
v 3 28 -7
v 3 28 -8
v 3 28 -9
v 3 29 3
v 3 29 2
v 3 29 1
v 3 29 -6
v 3 29 -7
v 3 29 -8
v 3 30 2
v 3 30 1
v 3 30 -0
v 3 30 -1
v 3 30 -4
v 3 30 -5
v 3 30 -6
v 3 30 -7
v 3 31 -0
v 3 31 -1
v 3 31 -4
v 3 31 -5
v 3 32 -1
v 3 32 -4
v 4 0 7
v 4 0 6
v 4 0 -11
v 4 0 -12
v 4 1 7
v 4 1 6
v 4 1 -11
v 4 1 -12
v 4 3 2
v 4 3 1
v 4 3 -6
v 4 3 -7
v 4 5 2
v 4 5 1
v 4 5 -0
v 4 5 -5
v 4 5 -6
v 4 5 -7
v 4 9 8
v 4 9 7
v 4 10 8
v 4 10 7
v 4 13 1
v 4 13 -0
v 4 16 1
v 4 16 -0
v 4 23 2
v 4 23 1
v 4 23 -0
v 4 23 -5
v 4 23 -6
v 4 23 -7
v 4 25 2
v 4 25 1
v 4 25 -6
v 4 25 -7
v 4 28 2
v 4 28 1
v 4 28 -6
v 4 28 -7
v 4 29 2
v 4 29 1
v 4 29 -0
v 4 29 -5
v 4 29 -6
v 4 29 -7
v 4 30 1
v 4 30 -0
v 4 30 -1
v 4 30 -4
v 4 30 -5
v 4 30 -6
v 4 31 -1
v 4 31 -4
v 5 1 4
v 5 1 3
v 5 1 -8
v 5 1 -9
v 5 3 4
v 5 3 3
v 5 3 1
v 5 3 -0
v 5 3 -5
v 5 3 -6
v 5 3 -8
v 5 3 -9
v 5 5 1
v 5 5 -0
v 5 5 -5
v 5 5 -6
v 5 13 -0
v 5 13 -5
v 5 17 -0
v 5 17 -5
v 5 23 1
v 5 23 -0
v 5 23 -5
v 5 23 -6
v 5 25 3
v 5 25 2
v 5 25 1
v 5 25 -0
v 5 25 -5
v 5 25 -6
v 5 25 -7
v 5 25 -8
v 5 28 3
v 5 28 2
v 5 28 1
v 5 28 -0
v 5 28 -5
v 5 28 -6
v 5 28 -7
v 5 28 -8
v 5 29 1
v 5 29 -0
v 5 29 -5
v 5 29 -6
v 5 30 -0
v 5 30 -5
v 6 0 6
v 6 0 5
v 6 0 -10
v 6 0 -11
v 6 1 6
v 6 1 5
v 6 1 3
v 6 1 2
v 6 1 -7
v 6 1 -8
v 6 1 -10
v 6 1 -11
v 6 3 3
v 6 3 2
v 6 3 -0
v 6 3 -5
v 6 3 -7
v 6 3 -8
v 6 5 -0
v 6 5 -5
v 6 13 -4
v 6 13 -5
v 6 15 3
v 6 15 2
v 6 16 3
v 6 16 2
v 6 17 -4
v 6 17 -5
v 6 23 -0
v 6 23 -5
v 6 25 2
v 6 25 -0
v 6 25 -5
v 6 25 -7
v 6 28 2
v 6 28 -0
v 6 28 -5
v 6 28 -7
v 6 29 -0
v 6 29 -5
v 7 0 5
v 7 0 4
v 7 0 -9
v 7 0 -10
v 7 1 5
v 7 1 4
v 7 1 2
v 7 1 -0
v 7 1 -5
v 7 1 -7
v 7 1 -9
v 7 1 -10
v 7 3 2
v 7 3 -0
v 7 3 -5
v 7 3 -7
v 7 7 8
v 7 7 7
v 7 7 6
v 7 8 8
v 7 8 7
v 7 8 6
v 7 9 8
v 7 9 7
v 7 13 8
v 7 13 7
v 7 13 -3
v 7 13 -4
v 7 16 8
v 7 16 7
v 7 16 -0
v 7 16 -3
v 7 17 -0
v 7 17 -4
v 7 20 8
v 7 20 7
v 7 25 -0
v 7 25 -5
v 7 28 -0
v 7 28 -5
v 8 0 4
v 8 0 3
v 8 0 -8
v 8 0 -9
v 8 1 4
v 8 1 3
v 8 1 -0
v 8 1 -5
v 8 1 -8
v 8 1 -9
v 8 3 -0
v 8 3 -5
v 8 13 8
v 8 13 7
v 8 13 3
v 8 13 -3
v 8 14 8
v 8 14 7
v 8 14 3
v 8 14 2
v 8 15 8
v 8 15 7
v 8 15 2
v 8 16 8
v 8 16 7
v 8 16 2
v 8 16 -3
v 9 0 3
v 9 0 1
v 9 0 -6
v 9 0 -8
v 9 1 3
v 9 1 1
v 9 1 -6
v 9 1 -8
v 9 8 8
v 9 8 7
v 9 8 6
v 9 9 8
v 9 9 7
v 9 9 6
v 9 12 6
v 9 12 4
v 9 13 4
v 9 13 3
v 9 14 3
v 9 14 2
v 9 15 6
v 9 15 2
v 10 0 1
v 10 0 -6
v 10 1 1
v 10 1 -6
v 10 9 8
v 10 9 7
v 10 9 6
v 10 10 8
v 10 10 7
v 10 10 6
v 11 10 8
v 11 10 7
v 11 10 6
v 11 11 8
v 11 11 7
v 11 11 6
v 12 11 8
v 12 11 7
v 12 11 6
v 12 13 8
v 12 13 7
v 12 13 6
v 13 13 8
v 13 13 7
v 13 13 6
v 13 21 8
v 13 21 7
v 13 21 6
v -7 25 18
v -7 27 18
v -6 25 18
v -6 27 18
v -7 24 17
v -7 25 17
v -6 24 17
v -6 25 17
v -7 23 16
v -7 24 16
v -6 23 16
v -6 24 16
v -7 22 15
v -7 23 15
v -6 22 15
v -6 23 15
v -7 21 14
v -7 22 14
v -6 21 14
v -6 22 14
v -7 20 13
v -7 21 13
v -6 20 13
v -6 21 13
v -7 19 12
v -7 20 12
v -6 19 12
v -6 20 12
v -7 18 11
v -7 19 11
v -6 18 11
v -6 19 11
v -7 12 10
v -7 14 10
v -7 17 10
v -7 18 10
v -6 12 10
v -6 14 10
v -6 17 10
v -6 18 10
v -7 14 9
v -7 15 9
v -7 16 9
v -7 17 9
v -6 14 9
v -6 15 9
v -6 16 9
v -6 17 9
v -7 15 8
v -7 16 8
v -6 15 8
v -6 16 8
v 0 13 8
v 0 21 8
v 1 11 8
v 1 13 8
v 1 14 8
v 1 15 8
v 1 20 8
v 2 10 8
v 2 11 8
v 2 13 8
v 3 9 8
v 3 10 8
v 3 11 8
v 4 8 8
v 4 9 8
v 4 10 8
v 5 13 8
v 5 14 8
v 5 15 8
v 5 16 8
v 6 7 8
v 6 8 8
v 6 9 8
v 6 13 8
v 6 16 8
v 6 20 8
v 7 7 8
v 7 8 8
v 7 9 8
v 7 13 8
v 7 16 8
v 7 20 8
v 8 13 8
v 8 14 8
v 8 15 8
v 8 16 8
v 9 8 8
v 9 9 8
v 9 10 8
v 10 9 8
v 10 10 8
v 10 11 8
v 11 10 8
v 11 11 8
v 11 13 8
v 12 11 8
v 12 13 8
v 12 14 8
v 12 15 8
v 12 20 8
v 13 13 8
v 13 21 8
v -8 13 7
v -8 15 7
v -7 13 7
v -7 15 7
v -6 13 7
v -6 14 7
v -5 13 7
v -5 14 7
v -3 0 7
v -3 1 7
v 1 13 7
v 1 14 7
v 1 15 7
v 1 20 7
v 2 11 7
v 2 13 7
v 3 10 7
v 3 11 7
v 4 0 7
v 4 1 7
v 4 9 7
v 4 10 7
v 5 13 7
v 5 14 7
v 5 15 7
v 5 16 7
v 6 9 7
v 6 13 7
v 6 16 7
v 6 20 7
v 7 9 7
v 7 13 7
v 7 16 7
v 7 20 7
v 8 13 7
v 8 14 7
v 8 15 7
v 8 16 7
v 9 9 7
v 9 10 7
v 10 10 7
v 10 11 7
v 11 11 7
v 11 13 7
v 12 13 7
v 12 14 7
v 12 15 7
v 12 20 7
v -8 12 6
v -8 13 6
v -7 17 6
v -7 18 6
v -6 14 6
v -6 15 6
v -6 17 6
v -6 18 6
v -5 0 6
v -5 1 6
v -5 12 6
v -5 13 6
v -5 14 6
v -5 15 6
v -3 0 6
v -3 1 6
v 4 0 6
v 4 1 6
v 6 0 6
v 6 1 6
v -7 18 5
v -7 19 5
v -6 0 5
v -6 1 5
v -6 18 5
v -6 19 5
v -5 0 5
v -5 1 5
v -2 1 5
v -2 3 5
v 3 1 5
v 3 3 5
v 6 0 5
v 6 1 5
v 7 0 5
v 7 1 5
v -7 0 4
v -7 1 4
v -6 0 4
v -6 1 4
v -4 1 4
v -4 3 4
v -2 1 4
v -2 3 4
v -2 25 4
v -2 28 4
v 3 1 4
v 3 3 4
v 3 25 4
v 3 28 4
v 5 1 4
v 5 3 4
v 7 0 4
v 7 1 4
v 8 0 4
v 8 1 4
v -8 0 3
v -8 1 3
v -7 0 3
v -7 1 3
v -5 1 3
v -5 3 3
v -5 13 3
v -5 15 3
v -5 16 3
v -4 1 3
v -4 3 3
v -4 25 3
v -4 28 3
v -2 3 3
v -2 5 3
v -2 13 3
v -2 16 3
v -2 23 3
v -2 25 3
v -2 28 3
v -2 29 3
v 3 3 3
v 3 5 3
v 3 13 3
v 3 16 3
v 3 23 3
v 3 25 3
v 3 28 3
v 3 29 3
v 5 1 3
v 5 3 3
v 5 25 3
v 5 28 3
v 6 1 3
v 6 3 3
v 6 13 3
v 6 15 3
v 6 16 3
v 8 0 3
v 8 1 3
v 9 0 3
v 9 1 3
v -7 15 2
v -7 16 2
v -6 1 2
v -6 3 2
v -5 1 2
v -5 3 2
v -5 15 2
v -5 16 2
v -5 25 2
v -5 28 2
v -4 25 2
v -4 28 2
v -3 3 2
v -3 5 2
v -3 23 2
v -3 25 2
v -3 28 2
v -3 29 2
v -2 3 2
v -2 5 2
v -2 13 2
v -2 16 2
v -2 23 2
v -2 25 2
v -2 28 2
v -2 29 2
v -2 30 2
v 3 3 2
v 3 5 2
v 3 13 2
v 3 16 2
v 3 23 2
v 3 25 2
v 3 28 2
v 3 29 2
v 3 30 2
v 4 3 2
v 4 5 2
v 4 23 2
v 4 25 2
v 4 28 2
v 4 29 2
v 5 25 2
v 5 28 2
v 6 1 2
v 6 3 2
v 6 15 2
v 6 16 2
v 6 25 2
v 6 28 2
v 7 1 2
v 7 3 2
v 8 15 2
v 8 16 2
v -9 0 1
v -9 1 1
v -8 0 1
v -8 1 1
v -4 3 1
v -4 5 1
v -4 23 1
v -4 25 1
v -4 28 1
v -4 29 1
v -3 3 1
v -3 5 1
v -3 13 1
v -3 16 1
v -3 23 1
v -3 25 1
v -3 28 1
v -3 29 1
v -3 30 1
v -2 5 1
v -2 13 1
v -2 16 1
v -2 23 1
v -2 29 1
v -2 30 1
v -1 30 1
v -1 31 1
v 2 30 1
v 2 31 1
v 3 5 1
v 3 13 1
v 3 16 1
v 3 23 1
v 3 29 1
v 3 30 1
v 4 3 1
v 4 5 1
v 4 13 1
v 4 16 1
v 4 23 1
v 4 25 1
v 4 28 1
v 4 29 1
v 4 30 1
v 5 3 1
v 5 5 1
v 5 23 1
v 5 25 1
v 5 28 1
v 5 29 1
v 9 0 1
v 9 1 1
v 10 0 1
v 10 1 1
v -7 1 -0
v -7 3 -0
v -6 1 -0
v -6 3 -0
v -6 16 -0
v -6 17 -0
v -6 25 -0
v -6 28 -0
v -5 3 -0
v -5 5 -0
v -5 23 -0
v -5 25 -0
v -5 28 -0
v -5 29 -0
v -4 3 -0
v -4 5 -0
v -4 13 -0
v -4 17 -0
v -4 23 -0
v -4 25 -0
v -4 28 -0
v -4 29 -0
v -4 30 -0
v -3 5 -0
v -3 13 -0
v -3 16 -0
v -3 23 -0
v -3 29 -0
v -3 30 -0
v -2 30 -0
v -2 31 -0
v -1 30 -0
v -1 31 -0
v -1 32 -0
v 2 30 -0
v 2 31 -0
v 2 32 -0
v 3 30 -0
v 3 31 -0
v 4 5 -0
v 4 13 -0
v 4 16 -0
v 4 23 -0
v 4 29 -0
v 4 30 -0
v 5 3 -0
v 5 5 -0
v 5 13 -0
v 5 17 -0
v 5 23 -0
v 5 25 -0
v 5 28 -0
v 5 29 -0
v 5 30 -0
v 6 3 -0
v 6 5 -0
v 6 23 -0
v 6 25 -0
v 6 28 -0
v 6 29 -0
v 7 1 -0
v 7 3 -0
v 7 16 -0
v 7 17 -0
v 7 25 -0
v 7 28 -0
v 8 1 -0
v 8 3 -0
v -3 30 -1
v -3 31 -1
v -2 30 -1
v -2 31 -1
v -2 32 -1
v -1 31 -1
v -1 32 -1
v -1 34 -1
v 2 31 -1
v 2 32 -1
v 2 34 -1
v 3 30 -1
v 3 31 -1
v 3 32 -1
v 4 30 -1
v 4 31 -1
v -7 26 16
v -7 27 16
v -6 26 16
v -6 27 16
v -7 25 15
v -7 26 15
v -6 25 15
v -6 26 15
v -7 24 14
v -7 25 14
v -6 24 14
v -6 25 14
v -7 23 13
v -7 24 13
v -6 23 13
v -6 24 13
v -7 22 12
v -7 23 12
v -6 22 12
v -6 23 12
v -7 21 11
v -7 22 11
v -6 21 11
v -6 22 11
v -7 20 10
v -7 21 10
v -6 20 10
v -6 21 10
v -7 19 9
v -7 20 9
v -6 19 9
v -6 20 9
v -7 12 8
v -7 13 8
v -7 18 8
v -7 19 8
v -6 12 8
v -6 13 8
v -6 18 8
v -6 19 8
v -7 17 7
v -7 18 7
v -6 17 7
v -6 18 7
v 0 13 6
v 0 21 6
v 1 11 6
v 1 13 6
v 2 10 6
v 2 11 6
v 3 9 6
v 3 10 6
v 4 8 6
v 4 9 6
v 6 7 6
v 6 8 6
v 6 12 6
v 6 15 6
v 7 7 6
v 7 8 6
v 9 8 6
v 9 9 6
v 9 12 6
v 9 15 6
v 10 9 6
v 10 10 6
v 11 10 6
v 11 11 6
v 12 11 6
v 12 13 6
v 13 13 6
v 13 21 6
v -7 15 5
v -7 16 5
v -6 15 5
v -6 16 5
v -8 12 4
v -8 13 4
v -7 12 4
v -7 13 4
v -7 16 4
v -7 17 4
v -6 12 4
v -6 13 4
v -6 16 4
v -6 17 4
v -5 12 4
v -5 13 4
v 6 12 4
v 6 13 4
v 9 12 4
v 9 13 4
v -8 13 3
v -8 14 3
v -7 12 3
v -7 13 3
v -7 14 3
v -7 17 3
v -7 19 3
v -6 12 3
v -6 13 3
v -6 17 3
v -6 19 3
v 8 13 3
v 8 14 3
v 9 13 3
v 9 14 3
v -8 14 2
v -8 15 2
v -7 14 2
v -7 15 2
v 8 14 2
v 8 15 2
v 9 14 2
v 9 15 2
v -7 13 -3
v -7 16 -3
v -6 13 -3
v -6 16 -3
v 7 13 -3
v 7 16 -3
v 8 13 -3
v 8 16 -3
v -6 13 -4
v -6 17 -4
v -5 13 -4
v -5 17 -4
v -3 30 -4
v -3 31 -4
v -2 30 -4
v -2 31 -4
v -2 32 -4
v -1 31 -4
v -1 32 -4
v -1 34 -4
v 2 31 -4
v 2 32 -4
v 2 34 -4
v 3 30 -4
v 3 31 -4
v 3 32 -4
v 4 30 -4
v 4 31 -4
v 6 13 -4
v 6 17 -4
v 7 13 -4
v 7 17 -4
v -7 1 -5
v -7 3 -5
v -6 1 -5
v -6 3 -5
v -6 25 -5
v -6 28 -5
v -5 3 -5
v -5 5 -5
v -5 13 -5
v -5 17 -5
v -5 23 -5
v -5 25 -5
v -5 28 -5
v -5 29 -5
v -4 3 -5
v -4 5 -5
v -4 13 -5
v -4 17 -5
v -4 23 -5
v -4 25 -5
v -4 28 -5
v -4 29 -5
v -4 30 -5
v -3 5 -5
v -3 23 -5
v -3 29 -5
v -3 30 -5
v -2 30 -5
v -2 31 -5
v -1 30 -5
v -1 31 -5
v -1 32 -5
v 2 30 -5
v 2 31 -5
v 2 32 -5
v 3 30 -5
v 3 31 -5
v 4 5 -5
v 4 23 -5
v 4 29 -5
v 4 30 -5
v 5 3 -5
v 5 5 -5
v 5 13 -5
v 5 17 -5
v 5 23 -5
v 5 25 -5
v 5 28 -5
v 5 29 -5
v 5 30 -5
v 6 3 -5
v 6 5 -5
v 6 13 -5
v 6 17 -5
v 6 23 -5
v 6 25 -5
v 6 28 -5
v 6 29 -5
v 7 1 -5
v 7 3 -5
v 7 25 -5
v 7 28 -5
v 8 1 -5
v 8 3 -5
v -9 0 -6
v -9 1 -6
v -8 0 -6
v -8 1 -6
v -4 3 -6
v -4 5 -6
v -4 23 -6
v -4 25 -6
v -4 28 -6
v -4 29 -6
v -3 3 -6
v -3 5 -6
v -3 23 -6
v -3 25 -6
v -3 28 -6
v -3 29 -6
v -3 30 -6
v -2 5 -6
v -2 23 -6
v -2 29 -6
v -2 30 -6
v -1 30 -6
v -1 31 -6
v 2 30 -6
v 2 31 -6
v 3 5 -6
v 3 23 -6
v 3 29 -6
v 3 30 -6
v 4 3 -6
v 4 5 -6
v 4 23 -6
v 4 25 -6
v 4 28 -6
v 4 29 -6
v 4 30 -6
v 5 3 -6
v 5 5 -6
v 5 23 -6
v 5 25 -6
v 5 28 -6
v 5 29 -6
v 9 0 -6
v 9 1 -6
v 10 0 -6
v 10 1 -6
v -6 1 -7
v -6 3 -7
v -5 1 -7
v -5 3 -7
v -5 25 -7
v -5 28 -7
v -4 25 -7
v -4 28 -7
v -3 3 -7
v -3 5 -7
v -3 23 -7
v -3 25 -7
v -3 28 -7
v -3 29 -7
v -2 3 -7
v -2 5 -7
v -2 23 -7
v -2 25 -7
v -2 28 -7
v -2 29 -7
v -2 30 -7
v 3 3 -7
v 3 5 -7
v 3 23 -7
v 3 25 -7
v 3 28 -7
v 3 29 -7
v 3 30 -7
v 4 3 -7
v 4 5 -7
v 4 23 -7
v 4 25 -7
v 4 28 -7
v 4 29 -7
v 5 25 -7
v 5 28 -7
v 6 1 -7
v 6 3 -7
v 6 25 -7
v 6 28 -7
v 7 1 -7
v 7 3 -7
v -8 0 -8
v -8 1 -8
v -7 0 -8
v -7 1 -8
v -5 1 -8
v -5 3 -8
v -4 1 -8
v -4 3 -8
v -4 25 -8
v -4 28 -8
v -2 3 -8
v -2 5 -8
v -2 23 -8
v -2 25 -8
v -2 28 -8
v -2 29 -8
v 3 3 -8
v 3 5 -8
v 3 23 -8
v 3 25 -8
v 3 28 -8
v 3 29 -8
v 5 1 -8
v 5 3 -8
v 5 25 -8
v 5 28 -8
v 6 1 -8
v 6 3 -8
v 8 0 -8
v 8 1 -8
v 9 0 -8
v 9 1 -8
v -7 0 -9
v -7 1 -9
v -6 0 -9
v -6 1 -9
v -4 1 -9
v -4 3 -9
v -2 1 -9
v -2 3 -9
v -2 25 -9
v -2 28 -9
v 3 1 -9
v 3 3 -9
v 3 25 -9
v 3 28 -9
v 5 1 -9
v 5 3 -9
v 7 0 -9
v 7 1 -9
v 8 0 -9
v 8 1 -9
v -6 0 -10
v -6 1 -10
v -5 0 -10
v -5 1 -10
v -2 1 -10
v -2 3 -10
v 3 1 -10
v 3 3 -10
v 6 0 -10
v 6 1 -10
v 7 0 -10
v 7 1 -10
v -5 0 -11
v -5 1 -11
v -3 0 -11
v -3 1 -11
v 4 0 -11
v 4 1 -11
v 6 0 -11
v 6 1 -11
v -3 0 -12
v -3 1 -12
v 4 0 -12
v 4 1 -12
v -3 0 7
v 4 0 7
v -5 0 6
v -3 0 6
v 4 0 6
v 6 0 6
v -6 0 5
v -5 0 5
v 6 0 5
v 7 0 5
v -7 0 4
v -6 0 4
v 7 0 4
v 8 0 4
v -8 0 3
v -7 0 3
v 8 0 3
v 9 0 3
v -9 0 1
v -8 0 1
v 9 0 1
v 10 0 1
v -9 0 -6
v -8 0 -6
v 9 0 -6
v 10 0 -6
v -8 0 -8
v -7 0 -8
v 8 0 -8
v 9 0 -8
v -7 0 -9
v -6 0 -9
v 7 0 -9
v 8 0 -9
v -6 0 -10
v -5 0 -10
v 6 0 -10
v 7 0 -10
v -5 0 -11
v -3 0 -11
v 4 0 -11
v 6 0 -11
v -3 0 -12
v 4 0 -12
v 6 7 8
v 7 7 8
v 6 7 7
v 7 7 7
v 6 7 6
v 7 7 6
v 4 8 8
v 6 8 8
v 7 8 8
v 9 8 8
v 4 8 7
v 6 8 7
v 7 8 7
v 9 8 7
v 4 8 6
v 6 8 6
v 7 8 6
v 9 8 6
v 3 9 8
v 4 9 8
v 9 9 8
v 10 9 8
v 3 9 7
v 4 9 7
v 9 9 7
v 10 9 7
v 3 9 6
v 4 9 6
v 9 9 6
v 10 9 6
v 2 10 8
v 3 10 8
v 10 10 8
v 11 10 8
v 2 10 7
v 3 10 7
v 10 10 7
v 11 10 7
v 2 10 6
v 3 10 6
v 10 10 6
v 11 10 6
v 1 11 8
v 2 11 8
v 11 11 8
v 12 11 8
v 1 11 7
v 2 11 7
v 11 11 7
v 12 11 7
v 1 11 6
v 2 11 6
v 11 11 6
v 12 11 6
v -7 12 10
v -6 12 10
v -7 12 8
v -6 12 8
v -8 12 6
v -5 12 6
v 6 12 6
v 9 12 6
v -8 12 4
v -7 12 4
v -6 12 4
v -5 12 4
v 6 12 4
v 9 12 4
v -7 12 3
v -6 12 3
v -7 13 8
v -6 13 8
v 0 13 8
v 1 13 8
v 5 13 8
v 6 13 8
v 7 13 8
v 8 13 8
v 12 13 8
v 13 13 8
v -8 13 7
v -7 13 7
v -6 13 7
v -5 13 7
v 0 13 7
v 1 13 7
v 5 13 7
v 6 13 7
v 7 13 7
v 8 13 7
v 12 13 7
v 13 13 7
v -8 13 6
v -5 13 6
v 0 13 6
v 1 13 6
v 12 13 6
v 13 13 6
v -8 13 4
v -7 13 4
v -6 13 4
v -5 13 4
v 6 13 4
v 9 13 4
v -8 13 3
v -7 13 3
v -6 13 3
v -5 13 3
v -2 13 3
v 3 13 3
v 6 13 3
v 8 13 3
v 9 13 3
v -2 13 2
v 3 13 2
v -3 13 1
v -2 13 1
v 3 13 1
v 4 13 1
v -4 13 -0
v -3 13 -0
v 4 13 -0
v 5 13 -0
v -7 13 -3
v -6 13 -3
v 7 13 -3
v 8 13 -3
v -6 13 -4
v -5 13 -4
v 6 13 -4
v 7 13 -4
v -5 13 -5
v -4 13 -5
v 5 13 -5
v 6 13 -5
v 1 14 8
v 5 14 8
v 8 14 8
v 12 14 8
v 1 14 7
v 5 14 7
v 8 14 7
v 12 14 7
v -8 14 3
v -7 14 3
v 8 14 3
v 9 14 3
v -8 14 2
v -7 14 2
v 8 14 2
v 9 14 2
v -7 16 9
v -6 16 9
v -7 16 8
v -6 16 8
v -7 16 5
v -6 16 5
v -7 16 4
v -6 16 4
v -7 17 10
v -6 17 10
v -7 17 9
v -6 17 9
v -7 17 4
v -6 17 4
v -7 17 3
v -6 17 3
v -7 18 11
v -6 18 11
v -7 18 10
v -6 18 10
v -7 19 12
v -6 19 12
v -7 19 11
v -6 19 11
v -7 20 13
v -6 20 13
v -7 20 12
v -6 20 12
v 1 20 8
v 6 20 8
v 7 20 8
v 12 20 8
v 1 20 7
v 6 20 7
v 7 20 7
v 12 20 7
v -7 21 14
v -6 21 14
v -7 21 13
v -6 21 13
v -7 22 15
v -6 22 15
v -7 22 14
v -6 22 14
v -7 23 16
v -6 23 16
v -7 23 15
v -6 23 15
v -2 23 3
v 3 23 3
v -3 23 2
v -2 23 2
v 3 23 2
v 4 23 2
v -4 23 1
v -3 23 1
v -2 23 1
v 3 23 1
v 4 23 1
v 5 23 1
v -5 23 -0
v -4 23 -0
v -3 23 -0
v 4 23 -0
v 5 23 -0
v 6 23 -0
v -5 23 -5
v -4 23 -5
v -3 23 -5
v 4 23 -5
v 5 23 -5
v 6 23 -5
v -4 23 -6
v -3 23 -6
v -2 23 -6
v 3 23 -6
v 4 23 -6
v 5 23 -6
v -3 23 -7
v -2 23 -7
v 3 23 -7
v 4 23 -7
v -2 23 -8
v 3 23 -8
v -7 24 17
v -6 24 17
v -7 24 16
v -6 24 16
v -7 25 18
v -6 25 18
v -7 25 17
v -6 25 17
v -2 25 4
v 3 25 4
v -4 25 3
v -2 25 3
v 3 25 3
v 5 25 3
v -5 25 2
v -4 25 2
v -3 25 2
v -2 25 2
v 3 25 2
v 4 25 2
v 5 25 2
v 6 25 2
v -4 25 1
v -3 25 1
v 4 25 1
v 5 25 1
v -6 25 -0
v -5 25 -0
v -4 25 -0
v 5 25 -0
v 6 25 -0
v 7 25 -0
v -6 25 -5
v -5 25 -5
v -4 25 -5
v 5 25 -5
v 6 25 -5
v 7 25 -5
v -4 25 -6
v -3 25 -6
v 4 25 -6
v 5 25 -6
v -5 25 -7
v -4 25 -7
v -3 25 -7
v -2 25 -7
v 3 25 -7
v 4 25 -7
v 5 25 -7
v 6 25 -7
v -4 25 -8
v -2 25 -8
v 3 25 -8
v 5 25 -8
v -2 25 -9
v 3 25 -9
v -3 1 7
v 4 1 7
v -5 1 6
v -3 1 6
v 4 1 6
v 6 1 6
v -6 1 5
v -5 1 5
v -2 1 5
v 3 1 5
v 6 1 5
v 7 1 5
v -7 1 4
v -6 1 4
v -4 1 4
v -2 1 4
v 3 1 4
v 5 1 4
v 7 1 4
v 8 1 4
v -8 1 3
v -7 1 3
v -5 1 3
v -4 1 3
v 5 1 3
v 6 1 3
v 8 1 3
v 9 1 3
v -6 1 2
v -5 1 2
v 6 1 2
v 7 1 2
v -9 1 1
v -8 1 1
v 9 1 1
v 10 1 1
v -7 1 -0
v -6 1 -0
v 7 1 -0
v 8 1 -0
v -7 1 -5
v -6 1 -5
v 7 1 -5
v 8 1 -5
v -9 1 -6
v -8 1 -6
v 9 1 -6
v 10 1 -6
v -6 1 -7
v -5 1 -7
v 6 1 -7
v 7 1 -7
v -8 1 -8
v -7 1 -8
v -5 1 -8
v -4 1 -8
v 5 1 -8
v 6 1 -8
v 8 1 -8
v 9 1 -8
v -7 1 -9
v -6 1 -9
v -4 1 -9
v -2 1 -9
v 3 1 -9
v 5 1 -9
v 7 1 -9
v 8 1 -9
v -6 1 -10
v -5 1 -10
v -2 1 -10
v 3 1 -10
v 6 1 -10
v 7 1 -10
v -5 1 -11
v -3 1 -11
v 4 1 -11
v 6 1 -11
v -3 1 -12
v 4 1 -12
v -2 3 5
v 3 3 5
v -4 3 4
v -2 3 4
v 3 3 4
v 5 3 4
v -5 3 3
v -4 3 3
v -2 3 3
v 3 3 3
v 5 3 3
v 6 3 3
v -6 3 2
v -5 3 2
v -3 3 2
v -2 3 2
v 3 3 2
v 4 3 2
v 6 3 2
v 7 3 2
v -4 3 1
v -3 3 1
v 4 3 1
v 5 3 1
v -7 3 -0
v -6 3 -0
v -5 3 -0
v -4 3 -0
v 5 3 -0
v 6 3 -0
v 7 3 -0
v 8 3 -0
v -7 3 -5
v -6 3 -5
v -5 3 -5
v -4 3 -5
v 5 3 -5
v 6 3 -5
v 7 3 -5
v 8 3 -5
v -4 3 -6
v -3 3 -6
v 4 3 -6
v 5 3 -6
v -6 3 -7
v -5 3 -7
v -3 3 -7
v -2 3 -7
v 3 3 -7
v 4 3 -7
v 6 3 -7
v 7 3 -7
v -5 3 -8
v -4 3 -8
v -2 3 -8
v 3 3 -8
v 5 3 -8
v 6 3 -8
v -4 3 -9
v -2 3 -9
v 3 3 -9
v 5 3 -9
v -2 3 -10
v 3 3 -10
v -2 5 3
v 3 5 3
v -3 5 2
v -2 5 2
v 3 5 2
v 4 5 2
v -4 5 1
v -3 5 1
v -2 5 1
v 3 5 1
v 4 5 1
v 5 5 1
v -5 5 -0
v -4 5 -0
v -3 5 -0
v 4 5 -0
v 5 5 -0
v 6 5 -0
v -5 5 -5
v -4 5 -5
v -3 5 -5
v 4 5 -5
v 5 5 -5
v 6 5 -5
v -4 5 -6
v -3 5 -6
v -2 5 -6
v 3 5 -6
v 4 5 -6
v 5 5 -6
v -3 5 -7
v -2 5 -7
v 3 5 -7
v 4 5 -7
v -2 5 -8
v 3 5 -8
v 4 9 8
v 6 9 8
v 7 9 8
v 9 9 8
v 4 9 7
v 6 9 7
v 7 9 7
v 9 9 7
v 3 10 8
v 4 10 8
v 9 10 8
v 10 10 8
v 3 10 7
v 4 10 7
v 9 10 7
v 10 10 7
v 2 11 8
v 3 11 8
v 10 11 8
v 11 11 8
v 2 11 7
v 3 11 7
v 10 11 7
v 11 11 7
v 1 13 8
v 2 13 8
v 11 13 8
v 12 13 8
v 1 13 7
v 2 13 7
v 11 13 7
v 12 13 7
v -7 14 10
v -6 14 10
v -7 14 9
v -6 14 9
v -6 14 7
v -5 14 7
v -6 14 6
v -5 14 6
v -7 15 9
v -6 15 9
v -7 15 8
v -6 15 8
v 1 15 8
v 5 15 8
v 8 15 8
v 12 15 8
v -8 15 7
v -7 15 7
v 1 15 7
v 5 15 7
v 8 15 7
v 12 15 7
v -6 15 6
v -5 15 6
v 6 15 6
v 9 15 6
v -7 15 5
v -6 15 5
v -5 15 3
v 6 15 3
v -8 15 2
v -7 15 2
v -5 15 2
v 6 15 2
v 8 15 2
v 9 15 2
v 5 16 8
v 6 16 8
v 7 16 8
v 8 16 8
v 5 16 7
v 6 16 7
v 7 16 7
v 8 16 7
v -5 16 3
v -2 16 3
v 3 16 3
v 6 16 3
v -7 16 2
v -5 16 2
v -2 16 2
v 3 16 2
v 6 16 2
v 8 16 2
v -3 16 1
v -2 16 1
v 3 16 1
v 4 16 1
v -6 16 -0
v -3 16 -0
v 4 16 -0
v 7 16 -0
v -7 16 -3
v -6 16 -3
v 7 16 -3
v 8 16 -3
v -7 17 7
v -6 17 7
v -7 17 6
v -6 17 6
v -6 17 -0
v -4 17 -0
v 5 17 -0
v 7 17 -0
v -6 17 -4
v -5 17 -4
v 6 17 -4
v 7 17 -4
v -5 17 -5
v -4 17 -5
v 5 17 -5
v 6 17 -5
v -7 18 8
v -6 18 8
v -7 18 7
v -6 18 7
v -7 18 6
v -6 18 6
v -7 18 5
v -6 18 5
v -7 19 9
v -6 19 9
v -7 19 8
v -6 19 8
v -7 19 5
v -6 19 5
v -7 19 3
v -6 19 3
v -7 20 10
v -6 20 10
v -7 20 9
v -6 20 9
v -7 21 11
v -6 21 11
v -7 21 10
v -6 21 10
v 0 21 8
v 13 21 8
v 0 21 7
v 13 21 7
v 0 21 6
v 13 21 6
v -7 22 12
v -6 22 12
v -7 22 11
v -6 22 11
v -7 23 13
v -6 23 13
v -7 23 12
v -6 23 12
v -7 24 14
v -6 24 14
v -7 24 13
v -6 24 13
v -7 25 15
v -6 25 15
v -7 25 14
v -6 25 14
v -7 26 16
v -6 26 16
v -7 26 15
v -6 26 15
v -7 27 18
v -6 27 18
v -7 27 16
v -6 27 16
v -2 28 4
v 3 28 4
v -4 28 3
v -2 28 3
v 3 28 3
v 5 28 3
v -5 28 2
v -4 28 2
v -3 28 2
v -2 28 2
v 3 28 2
v 4 28 2
v 5 28 2
v 6 28 2
v -4 28 1
v -3 28 1
v 4 28 1
v 5 28 1
v -6 28 -0
v -5 28 -0
v -4 28 -0
v 5 28 -0
v 6 28 -0
v 7 28 -0
v -6 28 -5
v -5 28 -5
v -4 28 -5
v 5 28 -5
v 6 28 -5
v 7 28 -5
v -4 28 -6
v -3 28 -6
v 4 28 -6
v 5 28 -6
v -5 28 -7
v -4 28 -7
v -3 28 -7
v -2 28 -7
v 3 28 -7
v 4 28 -7
v 5 28 -7
v 6 28 -7
v -4 28 -8
v -2 28 -8
v 3 28 -8
v 5 28 -8
v -2 28 -9
v 3 28 -9
v -2 29 3
v 3 29 3
v -3 29 2
v -2 29 2
v 3 29 2
v 4 29 2
v -4 29 1
v -3 29 1
v -2 29 1
v 3 29 1
v 4 29 1
v 5 29 1
v -5 29 -0
v -4 29 -0
v -3 29 -0
v 4 29 -0
v 5 29 -0
v 6 29 -0
v -5 29 -5
v -4 29 -5
v -3 29 -5
v 4 29 -5
v 5 29 -5
v 6 29 -5
v -4 29 -6
v -3 29 -6
v -2 29 -6
v 3 29 -6
v 4 29 -6
v 5 29 -6
v -3 29 -7
v -2 29 -7
v 3 29 -7
v 4 29 -7
v -2 29 -8
v 3 29 -8
v -2 30 2
v 3 30 2
v -3 30 1
v -2 30 1
v -1 30 1
v 2 30 1
v 3 30 1
v 4 30 1
v -4 30 -0
v -3 30 -0
v -2 30 -0
v -1 30 -0
v 2 30 -0
v 3 30 -0
v 4 30 -0
v 5 30 -0
v -3 30 -1
v -2 30 -1
v 3 30 -1
v 4 30 -1
v -3 30 -4
v -2 30 -4
v 3 30 -4
v 4 30 -4
v -4 30 -5
v -3 30 -5
v -2 30 -5
v -1 30 -5
v 2 30 -5
v 3 30 -5
v 4 30 -5
v 5 30 -5
v -3 30 -6
v -2 30 -6
v -1 30 -6
v 2 30 -6
v 3 30 -6
v 4 30 -6
v -2 30 -7
v 3 30 -7
v -1 31 1
v 2 31 1
v -2 31 -0
v -1 31 -0
v 2 31 -0
v 3 31 -0
v -3 31 -1
v -2 31 -1
v -1 31 -1
v 2 31 -1
v 3 31 -1
v 4 31 -1
v -3 31 -4
v -2 31 -4
v -1 31 -4
v 2 31 -4
v 3 31 -4
v 4 31 -4
v -2 31 -5
v -1 31 -5
v 2 31 -5
v 3 31 -5
v -1 31 -6
v 2 31 -6
v -1 32 -0
v 2 32 -0
v -2 32 -1
v -1 32 -1
v 2 32 -1
v 3 32 -1
v -2 32 -4
v -1 32 -4
v 2 32 -4
v 3 32 -4
v -1 32 -5
v 2 32 -5
v -1 34 -1
v 2 34 -1
v -1 34 -4
v 2 34 -4

# faces
f 3/2/1 2/2/1 1/2/1
f 4/2/1 2/2/1 3/2/1
f 9/2/1 6/2/1 5/2/1
f 10/2/1 6/2/1 9/2/1
f 11/2/1 8/2/1 7/2/1
f 12/2/1 8/2/1 11/2/1
f 16/2/1 14/2/1 13/2/1
f 17/2/1 14/2/1 16/2/1
f 19/2/1 16/2/1 15/2/1
f 19/2/1 18/2/1 17/2/1
f 19/2/1 17/2/1 16/2/1
f 21/2/1 19/2/1 15/2/1
f 21/2/1 20/2/1 19/2/1
f 22/2/1 20/2/1 21/2/1
f 27/2/1 24/2/1 23/2/1
f 28/2/1 24/2/1 27/2/1
f 31/2/1 26/2/1 25/2/1
f 32/2/1 26/2/1 31/2/1
f 33/2/1 30/2/1 29/2/1
f 34/2/1 30/2/1 33/2/1
f 39/3/1 36/3/1 35/3/1
f 41/2/1 38/2/1 37/2/1
f 42/2/1 38/2/1 41/2/1
f 44/3/1 40/3/1 39/3/1
f 44/3/1 39/3/1 35/3/1
f 45/3/1 40/3/1 44/3/1
f 46/2/1 43/2/1 42/2/1
f 47/2/1 43/2/1 46/2/1
f 48/3/1 40/3/1 45/3/1
f 49/3/1 40/3/1 48/3/1
f 50/3/1 40/3/1 49/3/1
f 52/2/1 43/2/1 47/2/1
f 54/3/1 50/3/1 49/3/1
f 55/2/1 51/2/1 50/2/1
f 57/2/1 43/2/1 52/2/1
f 58/2/1 43/2/1 57/2/1
f 60/3/1 54/3/1 53/3/1
f 61/2/1 56/2/1 55/2/1
f 61/3/1 50/3/1 54/3/1
f 61/3/1 54/3/1 60/3/1
f 61/2/1 55/2/1 50/2/1
f 62/2/1 56/2/1 61/2/1
f 63/2/1 56/2/1 62/2/1
f 66/3/1 60/3/1 59/3/1
f 66/3/1 61/3/1 60/3/1
f 67/3/1 61/3/1 66/3/1
f 68/3/1 61/3/1 67/3/1
f 69/2/1 63/2/1 62/2/1
f 69/2/1 64/2/1 63/2/1
f 70/2/1 64/2/1 69/2/1
f 72/3/1 67/3/1 66/3/1
f 72/3/1 66/3/1 65/3/1
f 73/3/1 67/3/1 72/3/1
f 74/3/1 67/3/1 73/3/1
f 75/2/1 64/2/1 70/2/1
f 76/2/1 64/2/1 75/2/1
f 78/3/1 72/3/1 71/3/1
f 78/3/1 73/3/1 72/3/1
f 79/3/1 73/3/1 78/3/1
f 80/3/1 73/3/1 79/3/1
f 82/3/1 78/3/1 77/3/1
f 82/3/1 79/3/1 78/3/1
f 83/3/1 79/3/1 82/3/1
f 84/3/1 79/3/1 83/3/1
f 86/3/1 82/3/1 81/3/1
f 86/3/1 83/3/1 82/3/1
f 87/3/1 83/3/1 86/3/1
f 88/3/1 83/3/1 87/3/1
f 90/3/1 86/3/1 85/3/1
f 90/3/1 87/3/1 86/3/1
f 91/3/1 87/3/1 90/3/1
f 92/3/1 87/3/1 91/3/1
f 94/3/1 90/3/1 89/3/1
f 94/3/1 91/3/1 90/3/1
f 95/3/1 91/3/1 94/3/1
f 96/3/1 91/3/1 95/3/1
f 98/3/1 94/3/1 93/3/1
f 98/3/1 95/3/1 94/3/1
f 99/3/1 95/3/1 98/3/1
f 100/3/1 95/3/1 99/3/1
f 101/3/1 98/3/1 97/3/1
f 101/3/1 99/3/1 98/3/1
f 102/3/1 99/3/1 101/3/1
f 103/3/1 101/3/1 97/3/1
f 104/3/1 101/3/1 103/3/1
f 109/2/1 106/2/1 105/2/1
f 110/2/1 106/2/1 109/2/1
f 115/2/1 108/2/1 107/2/1
f 116/2/1 108/2/1 115/2/1
f 117/2/1 112/2/1 111/2/1
f 118/2/1 112/2/1 117/2/1
f 119/2/1 114/2/1 113/2/1
f 120/2/1 114/2/1 119/2/1
f 124/2/1 122/2/1 121/2/1
f 125/2/1 124/2/1 123/2/1
f 126/2/1 122/2/1 124/2/1
f 126/2/1 124/2/1 125/2/1
f 129/2/1 128/2/1 127/2/1
f 130/2/1 128/2/1 129/2/1
f 135/2/1 132/2/1 131/2/1
f 136/2/1 132/2/1 135/2/1
f 141/2/1 134/2/1 133/2/1
f 142/2/1 134/2/1 141/2/1
f 143/2/1 138/2/1 137/2/1
f 144/2/1 138/2/1 143/2/1
f 147/2/1 140/2/1 139/2/1
f 148/2/1 140/2/1 147/2/1
f 149/2/1 146/2/1 145/2/1
f 150/2/1 146/2/1 149/2/1
f 155/2/1 154/2/1 153/2/1
f 156/2/1 154/2/1 155/2/1
f 157/2/1 152/2/1 151/2/1
f 158/2/1 152/2/1 157/2/1
f 162/2/1 160/2/1 159/2/1
f 163/2/1 160/2/1 162/2/1
f 165/2/1 162/2/1 161/2/1
f 166/2/1 162/2/1 165/2/1
f 167/2/1 164/2/1 163/2/1
f 168/2/1 164/2/1 167/2/1
f 169/2/1 167/2/1 166/2/1
f 170/2/1 167/2/1 169/2/1
f 175/2/1 172/2/1 171/2/1
f 176/2/1 172/2/1 175/2/1
f 181/2/1 174/2/1 173/2/1
f 182/2/1 174/2/1 181/2/1
f 183/2/1 178/2/1 177/2/1
f 184/2/1 178/2/1 183/2/1
f 185/2/1 180/2/1 179/2/1
f 186/2/1 180/2/1 185/2/1
f 187/2/1 185/2/1 184/2/1
f 188/2/1 185/2/1 187/2/1
f 192/2/1 190/2/1 189/2/1
f 193/2/1 190/2/1 192/2/1
f 197/2/1 192/2/1 191/2/1
f 198/2/1 192/2/1 197/2/1
f 199/2/1 194/2/1 193/2/1
f 200/2/1 194/2/1 199/2/1
f 203/2/1 196/2/1 195/2/1
f 204/2/1 196/2/1 203/2/1
f 209/2/1 202/2/1 201/2/1
f 210/2/1 202/2/1 209/2/1
f 211/2/1 206/2/1 205/2/1
f 212/2/1 206/2/1 211/2/1
f 213/2/1 208/2/1 207/2/1
f 214/2/1 208/2/1 213/2/1
f 215/2/1 213/2/1 212/2/1
f 216/2/1 213/2/1 215/2/1
f 221/2/1 218/2/1 217/2/1
f 222/2/1 218/2/1 221/2/1
f 223/2/1 220/2/1 219/2/1
f 224/2/1 220/2/1 223/2/1
f 229/2/1 226/2/1 225/2/1
f 230/2/1 226/2/1 229/2/1
f 233/2/1 228/2/1 227/2/1
f 234/2/1 228/2/1 233/2/1
f 235/2/1 231/2/1 230/2/1
f 236/2/1 231/2/1 235/2/1
f 240/2/1 238/2/1 237/2/1
f 241/2/1 238/2/1 240/2/1
f 242/2/1 233/2/1 232/2/1
f 243/2/1 233/2/1 242/2/1
f 245/2/1 240/2/1 239/2/1
f 246/2/1 240/2/1 245/2/1
f 247/2/1 244/2/1 243/2/1
f 248/2/1 244/2/1 247/2/1
f 253/2/1 250/2/1 249/2/1
f 254/2/1 250/2/1 253/2/1
f 257/2/1 252/2/1 251/2/1
f 258/2/1 252/2/1 257/2/1
f 259/2/1 255/2/1 254/2/1
f 260/2/1 255/2/1 259/2/1
f 263/2/1 257/2/1 256/2/1
f 264/2/1 257/2/1 263/2/1
f 265/2/1 262/2/1 261/2/1
f 266/2/1 262/2/1 265/2/1
f 271/2/1 268/2/1 267/2/1
f 272/2/1 268/2/1 271/2/1
f 277/2/1 270/2/1 269/2/1
f 278/2/1 270/2/1 277/2/1
f 279/2/1 274/2/1 273/2/1
f 280/2/1 274/2/1 279/2/1
f 283/2/1 276/2/1 275/2/1
f 284/2/1 276/2/1 283/2/1
f 285/2/1 281/2/1 280/2/1
f 286/2/1 281/2/1 285/2/1
f 290/2/1 288/2/1 287/2/1
f 291/2/1 288/2/1 290/2/1
f 292/2/1 283/2/1 282/2/1
f 293/2/1 283/2/1 292/2/1
f 296/2/1 290/2/1 289/2/1
f 297/2/1 290/2/1 296/2/1
f 298/2/1 294/2/1 293/2/1
f 299/2/1 294/2/1 298/2/1
f 301/2/1 296/2/1 295/2/1
f 302/2/1 296/2/1 301/2/1
f 305/2/1 300/2/1 299/2/1
f 306/2/1 300/2/1 305/2/1
f 307/2/1 303/2/1 302/2/1
f 308/2/1 303/2/1 307/2/1
f 311/2/1 305/2/1 304/2/1
f 312/2/1 305/2/1 311/2/1
f 313/2/1 309/2/1 308/2/1
f 314/2/1 309/2/1 313/2/1
f 319/2/1 311/2/1 310/2/1
f 320/2/1 311/2/1 319/2/1
f 321/2/1 316/2/1 315/2/1
f 322/2/1 316/2/1 321/2/1
f 323/2/1 318/2/1 317/2/1
f 324/2/1 318/2/1 323/2/1
f 325/2/1 323/2/1 322/2/1
f 326/2/1 323/2/1 325/2/1
f 331/2/1 328/2/1 327/2/1
f 332/2/1 328/2/1 331/2/1
f 335/2/1 330/2/1 329/2/1
f 336/2/1 330/2/1 335/2/1
f 337/2/1 333/2/1 332/2/1
f 338/2/1 333/2/1 337/2/1
f 339/2/1 335/2/1 334/2/1
f 340/2/1 335/2/1 339/2/1
f 341/2/1 339/2/1 338/2/1
f 342/2/1 339/2/1 341/2/1
f 346/1/1 344/1/1 343/1/1
f 347/2/1 345/2/1 344/2/1
f 347/1/1 344/1/1 346/1/1
f 348/2/1 345/2/1 347/2/1
f 352/1/1 350/1/1 349/1/1
f 353/2/1 351/2/1 350/2/1
f 353/1/1 350/1/1 352/1/1
f 354/2/1 351/2/1 353/2/1
f 358/1/1 356/1/1 355/1/1
f 359/2/1 357/2/1 356/2/1
f 359/1/1 356/1/1 358/1/1
f 360/2/1 357/2/1 359/2/1
f 364/1/1 362/1/1 361/1/1
f 365/2/1 363/2/1 362/2/1
f 365/1/1 362/1/1 364/1/1
f 366/2/1 363/2/1 365/2/1
f 369/2/1 368/2/1 367/2/1
f 370/2/1 368/2/1 369/2/1
f 374/1/1 372/1/1 371/1/1
f 375/2/1 373/2/1 372/2/1
f 375/1/1 372/1/1 374/1/1
f 376/2/1 373/2/1 375/2/1
f 379/1/1 378/1/1 377/1/1
f 380/1/1 378/1/1 379/1/1
f 383/1/1 382/1/1 381/1/1
f 384/1/1 382/1/1 383/1/1
f 388/1/1 386/1/1 385/1/1
f 389/2/1 387/2/1 386/2/1
f 389/1/1 386/1/1 388/1/1
f 390/2/1 387/2/1 389/2/1
f 395/3/1 392/3/1 391/3/1
f 396/3/1 392/3/1 395/3/1
f 397/2/1 394/2/1 393/2/1
f 399/2/1 398/2/1 397/2/1
f 399/2/1 397/2/1 393/2/1
f 400/2/1 398/2/1 399/2/1
f 403/3/1 402/3/1 401/3/1
f 404/3/1 402/3/1 403/3/1
f 407/1/1 406/1/1 405/1/1
f 408/1/1 406/1/1 407/1/1
f 411/1/1 410/1/1 409/1/1
f 412/1/1 410/1/1 411/1/1
f 415/1/1 414/1/1 413/1/1
f 416/1/1 414/1/1 415/1/1
f 419/1/1 418/1/1 417/1/1
f 420/1/1 418/1/1 419/1/1
f 423/1/1 422/1/1 421/1/1
f 424/1/1 422/1/1 423/1/1
f 425/3/2 426/3/2 429/3/2
f 427/2/2 428/2/2 431/2/2
f 431/2/2 428/2/2 432/2/2
f 429/3/2 430/3/2 433/3/2
f 425/3/2 429/3/2 433/3/2
f 433/3/2 430/3/2 434/3/2
f 434/3/2 430/3/2 435/3/2
f 434/3/2 435/3/2 437/3/2
f 437/3/2 435/3/2 438/3/2
f 435/2/2 436/2/2 439/2/2
f 438/3/2 435/3/2 442/3/2
f 439/2/2 440/2/2 443/2/2
f 441/3/2 442/3/2 446/3/2
f 435/2/2 439/2/2 447/2/2
f 443/2/2 444/2/2 447/2/2
f 446/3/2 442/3/2 447/3/2
f 442/3/2 435/3/2 447/3/2
f 439/2/2 443/2/2 447/2/2
f 447/2/2 444/2/2 448/2/2
f 448/2/2 444/2/2 449/2/2
f 445/3/2 446/3/2 452/3/2
f 446/3/2 447/3/2 452/3/2
f 452/3/2 447/3/2 453/3/2
f 453/3/2 447/3/2 454/3/2
f 448/2/2 449/2/2 455/2/2
f 449/2/2 450/2/2 455/2/2
f 455/2/2 450/2/2 456/2/2
f 452/3/2 453/3/2 458/3/2
f 451/3/2 452/3/2 458/3/2
f 458/3/2 453/3/2 459/3/2
f 459/3/2 453/3/2 460/3/2
f 456/2/2 450/2/2 461/2/2
f 461/2/2 450/2/2 462/2/2
f 457/3/2 458/3/2 464/3/2
f 458/3/2 459/3/2 464/3/2
f 464/3/2 459/3/2 465/3/2
f 465/3/2 459/3/2 466/3/2
f 463/3/2 464/3/2 468/3/2
f 464/3/2 465/3/2 468/3/2
f 468/3/2 465/3/2 469/3/2
f 469/3/2 465/3/2 470/3/2
f 467/3/2 468/3/2 472/3/2
f 468/3/2 469/3/2 472/3/2
f 472/3/2 469/3/2 473/3/2
f 473/3/2 469/3/2 474/3/2
f 471/3/2 472/3/2 476/3/2
f 472/3/2 473/3/2 476/3/2
f 476/3/2 473/3/2 477/3/2
f 477/3/2 473/3/2 478/3/2
f 475/3/2 476/3/2 480/3/2
f 476/3/2 477/3/2 480/3/2
f 480/3/2 477/3/2 481/3/2
f 481/3/2 477/3/2 482/3/2
f 479/3/2 480/3/2 484/3/2
f 480/3/2 481/3/2 484/3/2
f 484/3/2 481/3/2 485/3/2
f 485/3/2 481/3/2 486/3/2
f 483/3/2 484/3/2 487/3/2
f 484/3/2 485/3/2 487/3/2
f 487/3/2 485/3/2 488/3/2
f 483/3/2 487/3/2 489/3/2
f 489/3/2 487/3/2 490/3/2
f 491/2/2 492/2/2 494/2/2
f 494/2/2 492/2/2 495/2/2
f 493/2/2 494/2/2 497/2/2
f 495/2/2 496/2/2 497/2/2
f 494/2/2 495/2/2 497/2/2
f 497/2/2 496/2/2 498/2/2
f 498/2/2 496/2/2 499/2/2
f 499/2/2 496/2/2 500/2/2
f 501/2/2 502/2/2 503/2/2
f 503/2/2 502/2/2 504/2/2
f 505/1/2 506/1/2 507/1/2
f 507/1/2 506/1/2 508/1/2
f 509/1/2 510/1/2 511/1/2
f 511/1/2 510/1/2 512/1/2
f 513/1/2 514/1/2 515/1/2
f 515/1/2 514/1/2 516/1/2
f 517/2/2 518/2/2 521/2/2
f 521/2/2 518/2/2 522/2/2
f 519/2/2 520/2/2 525/2/2
f 525/2/2 520/2/2 526/2/2
f 522/2/2 523/2/2 527/2/2
f 527/2/2 523/2/2 528/2/2
f 524/2/2 525/2/2 529/2/2
f 529/2/2 525/2/2 530/2/2
f 528/2/2 529/2/2 531/2/2
f 531/2/2 529/2/2 532/2/2
f 533/2/2 534/2/2 537/2/2
f 537/2/2 534/2/2 538/2/2
f 535/2/2 536/2/2 543/2/2
f 543/2/2 536/2/2 544/2/2
f 539/2/2 540/2/2 545/2/2
f 545/2/2 540/2/2 546/2/2
f 541/2/2 542/2/2 549/2/2
f 549/2/2 542/2/2 550/2/2
f 551/1/2 552/1/2 553/1/2
f 553/1/2 552/1/2 554/1/2
f 546/2/2 547/2/2 555/2/2
f 555/2/2 547/2/2 556/2/2
f 557/2/2 558/2/2 560/2/2
f 560/2/2 558/2/2 561/2/2
f 548/2/2 549/2/2 562/2/2
f 562/2/2 549/2/2 563/2/2
f 559/2/2 560/2/2 566/2/2
f 566/2/2 560/2/2 567/2/2
f 563/2/2 564/2/2 568/2/2
f 568/2/2 564/2/2 569/2/2
f 565/2/2 566/2/2 571/2/2
f 571/2/2 566/2/2 572/2/2
f 569/2/2 570/2/2 575/2/2
f 575/2/2 570/2/2 576/2/2
f 572/2/2 573/2/2 577/2/2
f 577/2/2 573/2/2 578/2/2
f 574/2/2 575/2/2 581/2/2
f 581/2/2 575/2/2 582/2/2
f 578/2/2 579/2/2 583/2/2
f 583/2/2 579/2/2 584/2/2
f 580/2/2 581/2/2 589/2/2
f 589/2/2 581/2/2 590/2/2
f 585/2/2 586/2/2 591/2/2
f 591/2/2 586/2/2 592/2/2
f 587/2/2 588/2/2 593/2/2
f 593/2/2 588/2/2 594/2/2
f 592/2/2 593/2/2 595/2/2
f 595/2/2 593/2/2 596/2/2
f 597/2/2 598/2/2 601/2/2
f 601/2/2 598/2/2 602/2/2
f 599/2/2 600/2/2 603/2/2
f 603/2/2 600/2/2 604/2/2
f 605/2/2 606/2/2 609/2/2
f 609/2/2 606/2/2 610/2/2
f 607/2/2 608/2/2 613/2/2
f 613/2/2 608/2/2 614/2/2
f 615/1/2 616/1/2 617/1/2
f 617/1/2 616/1/2 618/1/2
f 610/2/2 611/2/2 619/2/2
f 619/2/2 611/2/2 620/2/2
f 621/2/2 622/2/2 624/2/2
f 624/2/2 622/2/2 625/2/2
f 612/2/2 613/2/2 626/2/2
f 626/2/2 613/2/2 627/2/2
f 623/2/2 624/2/2 629/2/2
f 629/2/2 624/2/2 630/2/2
f 627/2/2 628/2/2 631/2/2
f 631/2/2 628/2/2 632/2/2
f 633/2/2 634/2/2 637/2/2
f 637/2/2 634/2/2 638/2/2
f 635/2/2 636/2/2 641/2/2
f 641/2/2 636/2/2 642/2/2
f 638/2/2 639/2/2 643/2/2
f 643/2/2 639/2/2 644/2/2
f 640/2/2 641/2/2 647/2/2
f 647/2/2 641/2/2 648/2/2
f 645/2/2 646/2/2 649/2/2
f 649/2/2 646/2/2 650/2/2
f 651/2/2 652/2/2 655/2/2
f 655/2/2 652/2/2 656/2/2
f 653/2/2 654/2/2 661/2/2
f 661/2/2 654/2/2 662/2/2
f 657/2/2 658/2/2 663/2/2
f 663/2/2 658/2/2 664/2/2
f 659/2/2 660/2/2 665/2/2
f 665/2/2 660/2/2 666/2/2
f 664/2/2 665/2/2 667/2/2
f 667/2/2 665/2/2 668/2/2
f 669/2/2 670/2/2 672/2/2
f 672/2/2 670/2/2 673/2/2
f 671/2/2 672/2/2 677/2/2
f 677/2/2 672/2/2 678/2/2
f 673/2/2 674/2/2 679/2/2
f 679/2/2 674/2/2 680/2/2
f 675/2/2 676/2/2 683/2/2
f 683/2/2 676/2/2 684/2/2
f 681/2/2 682/2/2 689/2/2
f 689/2/2 682/2/2 690/2/2
f 685/2/2 686/2/2 691/2/2
f 691/2/2 686/2/2 692/2/2
f 687/2/2 688/2/2 693/2/2
f 693/2/2 688/2/2 694/2/2
f 692/2/2 693/2/2 695/2/2
f 695/2/2 693/2/2 696/2/2
f 697/2/2 698/2/2 701/2/2
f 701/2/2 698/2/2 702/2/2
f 699/2/2 700/2/2 707/2/2
f 707/2/2 700/2/2 708/2/2
f 703/2/2 704/2/2 709/2/2
f 709/2/2 704/2/2 710/2/2
f 705/2/2 706/2/2 713/2/2
f 713/2/2 706/2/2 714/2/2
f 711/2/2 712/2/2 715/2/2
f 715/2/2 712/2/2 716/2/2
f 719/2/2 720/2/2 721/2/2
f 721/2/2 720/2/2 722/2/2
f 717/2/2 718/2/2 723/2/2
f 723/2/2 718/2/2 724/2/2
f 725/2/2 726/2/2 728/2/2
f 728/2/2 726/2/2 729/2/2
f 727/2/2 728/2/2 731/2/2
f 731/2/2 728/2/2 732/2/2
f 729/2/2 730/2/2 733/2/2
f 733/2/2 730/2/2 734/2/2
f 732/2/2 733/2/2 735/2/2
f 735/2/2 733/2/2 736/2/2
f 737/2/2 738/2/2 741/2/2
f 741/2/2 738/2/2 742/2/2
f 739/2/2 740/2/2 747/2/2
f 747/2/2 740/2/2 748/2/2
f 743/2/2 744/2/2 749/2/2
f 749/2/2 744/2/2 750/2/2
f 745/2/2 746/2/2 751/2/2
f 751/2/2 746/2/2 752/2/2
f 753/1/2 754/1/2 756/1/2
f 754/2/2 755/2/2 757/2/2
f 756/1/2 754/1/2 757/1/2
f 757/2/2 755/2/2 758/2/2
f 759/3/2 760/3/2 761/3/2
f 761/3/2 760/3/2 762/3/2
f 763/2/2 764/2/2 768/2/2
f 767/2/2 768/2/2 769/2/2
f 768/2/2 764/2/2 770/2/2
f 769/2/2 768/2/2 770/2/2
f 765/3/2 766/3/2 771/3/2
f 771/3/2 766/3/2 772/3/2
f 773/2/2 774/2/2 775/2/2
f 775/2/2 774/2/2 776/2/2
f 777/2/2 778/2/2 781/2/2
f 781/2/2 778/2/2 782/2/2
f 779/2/2 780/2/2 785/2/2
f 785/2/2 780/2/2 786/2/2
f 783/2/2 784/2/2 787/2/2
f 787/2/2 784/2/2 788/2/2
f 789/1/2 790/1/2 793/1/2
f 793/1/2 790/1/2 794/1/2
f 791/2/2 792/2/2 795/2/2
f 795/2/2 792/2/2 796/2/2
f 796/2/2 792/2/2 799/2/2
f 797/1/2 798/1/2 800/1/2
f 800/1/2 798/1/2 801/1/2
f 799/2/2 792/2/2 802/2/2
f 802/2/2 792/2/2 803/2/2
f 804/2/2 805/2/2 808/2/2
f 808/2/2 805/2/2 809/2/2
f 806/2/2 807/2/2 810/2/2
f 810/2/2 807/2/2 811/2/2
f 812/1/2 813/1/2 815/1/2
f 813/2/2 814/2/2 816/2/2
f 815/1/2 813/1/2 816/1/2
f 816/2/2 814/2/2 817/2/2
f 818/2/2 819/2/2 820/2/2
f 820/2/2 821/2/2 822/2/2
f 818/2/2 820/2/2 824/2/2
f 822/2/2 823/2/2 824/2/2
f 820/2/2 822/2/2 824/2/2
f 824/2/2 823/2/2 825/2/2
f 826/2/2 827/2/2 828/2/2
f 828/2/2 827/2/2 829/2/2
f 830/1/2 831/1/2 833/1/2
f 831/2/2 832/2/2 834/2/2
f 833/1/2 831/1/2 834/1/2
f 834/2/2 832/2/2 835/2/2
f 836/1/2 837/1/2 839/1/2
f 837/2/2 838/2/2 840/2/2
f 839/1/2 837/1/2 840/1/2
f 840/2/2 838/2/2 841/2/2
f 842/1/2 843/1/2 845/1/2
f 843/2/2 844/2/2 846/2/2
f 845/1/2 843/1/2 846/1/2
f 846/2/2 844/2/2 847/2/2
f 848/1/2 849/1/2 851/1/2
f 849/2/2 850/2/2 852/2/2
f 851/1/2 849/1/2 852/1/2
f 852/2/2 850/2/2 853/2/2
f 856/3/3 855/3/3 854/3/3
f 857/3/3 855/3/3 856/3/3
f 860/3/3 859/3/3 858/3/3
f 861/3/3 859/3/3 860/3/3
f 864/3/3 863/3/3 862/3/3
f 865/3/3 863/3/3 864/3/3
f 868/3/3 867/3/3 866/3/3
f 869/3/3 867/3/3 868/3/3
f 872/3/3 871/3/3 870/3/3
f 873/3/3 871/3/3 872/3/3
f 876/3/3 875/3/3 874/3/3
f 877/3/3 875/3/3 876/3/3
f 880/3/3 879/3/3 878/3/3
f 881/3/3 879/3/3 880/3/3
f 884/3/3 883/3/3 882/3/3
f 885/3/3 883/3/3 884/3/3
f 890/3/3 887/3/3 886/3/3
f 891/3/3 887/3/3 890/3/3
f 892/3/3 889/3/3 888/3/3
f 893/3/3 889/3/3 892/3/3
f 898/3/3 895/3/3 894/3/3
f 899/3/3 895/3/3 898/3/3
f 900/3/3 897/3/3 896/3/3
f 901/3/3 897/3/3 900/3/3
f 904/3/3 903/3/3 902/3/3
f 905/3/3 903/3/3 904/3/3
f 909/1/3 907/1/3 906/1/3
f 910/1/3 907/1/3 909/1/3
f 911/1/3 907/1/3 910/1/3
f 912/1/3 907/1/3 911/1/3
f 914/1/3 909/1/3 908/1/3
f 915/1/3 909/1/3 914/1/3
f 917/1/3 914/1/3 913/1/3
f 918/1/3 914/1/3 917/1/3
f 920/1/3 917/1/3 916/1/3
f 921/1/3 917/1/3 920/1/3
f 923/3/3 911/3/3 910/3/3
f 924/3/3 911/3/3 923/3/3
f 927/1/3 920/1/3 919/1/3
f 928/1/3 920/1/3 927/1/3
f 929/1/3 925/1/3 924/1/3
f 929/1/3 923/1/3 922/1/3
f 929/1/3 924/1/3 923/1/3
f 930/1/3 925/1/3 929/1/3
f 931/1/3 907/1/3 912/1/3
f 932/1/3 927/1/3 926/1/3
f 933/3/3 928/3/3 927/3/3
f 933/1/3 927/1/3 932/1/3
f 933/3/3 929/3/3 928/3/3
f 934/3/3 929/3/3 933/3/3
f 935/1/3 930/1/3 929/1/3
f 935/3/3 929/3/3 934/3/3
f 936/3/3 931/3/3 930/3/3
f 936/1/3 930/1/3 935/1/3
f 937/1/3 907/1/3 931/1/3
f 937/3/3 931/3/3 936/3/3
f 938/1/3 936/1/3 935/1/3
f 939/1/3 936/1/3 938/1/3
f 940/1/3 936/1/3 939/1/3
f 941/1/3 936/1/3 940/1/3
f 942/1/3 934/1/3 933/1/3
f 943/1/3 934/1/3 942/1/3
f 945/1/3 944/1/3 943/1/3
f 946/1/3 944/1/3 945/1/3
f 948/1/3 947/1/3 946/1/3
f 949/1/3 947/1/3 948/1/3
f 951/1/3 950/1/3 949/1/3
f 952/1/3 950/1/3 951/1/3
f 953/3/3 940/3/3 939/3/3
f 954/3/3 940/3/3 953/3/3
f 955/1/3 907/1/3 937/1/3
f 956/1/3 954/1/3 953/1/3
f 956/1/3 955/1/3 954/1/3
f 956/1/3 953/1/3 952/1/3
f 957/1/3 907/1/3 955/1/3
f 957/1/3 955/1/3 956/1/3
f 960/2/3 959/2/3 958/2/3
f 961/2/3 959/2/3 960/2/3
f 964/2/3 963/2/3 962/2/3
f 965/2/3 963/2/3 964/2/3
f 973/2/3 969/2/3 968/2/3
f 975/2/3 973/2/3 972/2/3
f 976/2/3 967/2/3 966/2/3
f 977/2/3 967/2/3 976/2/3
f 979/2/3 975/2/3 974/2/3
f 980/2/3 979/2/3 978/2/3
f 980/2/3 975/2/3 979/2/3
f 980/2/3 969/2/3 973/2/3
f 980/2/3 973/2/3 975/2/3
f 981/2/3 969/2/3 980/2/3
f 982/2/3 971/2/3 970/2/3
f 983/2/3 971/2/3 982/2/3
f 984/2/3 980/2/3 978/2/3
f 985/2/3 980/2/3 984/2/3
f 986/2/3 971/2/3 983/2/3
f 987/2/3 971/2/3 986/2/3
f 992/2/3 989/2/3 988/2/3
f 995/2/3 991/2/3 990/2/3
f 996/2/3 993/2/3 992/2/3
f 996/2/3 992/2/3 988/2/3
f 997/2/3 993/2/3 996/2/3
f 998/2/3 993/2/3 997/2/3
f 999/2/3 993/2/3 998/2/3
f 1000/2/3 993/2/3 999/2/3
f 1001/2/3 993/2/3 1000/2/3
f 1002/2/3 993/2/3 1001/2/3
f 1003/2/3 993/2/3 1002/2/3
f 1004/2/3 995/2/3 994/2/3
f 1005/2/3 991/2/3 995/2/3
f 1005/2/3 995/2/3 1004/2/3
f 1012/2/3 1009/2/3 1008/2/3
f 1013/2/3 1009/2/3 1012/2/3
f 1016/2/3 1007/2/3 1006/2/3
f 1017/2/3 1007/2/3 1016/2/3
f 1018/2/3 1011/2/3 1010/2/3
f 1019/2/3 1011/2/3 1018/2/3
f 1020/2/3 1015/2/3 1014/2/3
f 1021/2/3 1015/2/3 1020/2/3
f 1024/2/3 1023/2/3 1022/2/3
f 1025/2/3 1023/2/3 1024/2/3
f 1030/2/3 1027/2/3 1026/2/3
f 1031/2/3 1027/2/3 1030/2/3
f 1032/2/3 1029/2/3 1028/2/3
f 1033/2/3 1029/2/3 1032/2/3
f 1036/2/3 1035/2/3 1034/2/3
f 1037/2/3 1035/2/3 1036/2/3
f 1040/2/3 1039/2/3 1038/2/3
f 1041/2/3 1039/2/3 1040/2/3
f 1044/2/3 1043/2/3 1042/2/3
f 1045/2/3 1043/2/3 1044/2/3
f 1048/2/3 1047/2/3 1046/2/3
f 1049/2/3 1047/2/3 1048/2/3
f 1054/2/3 1051/2/3 1050/2/3
f 1055/2/3 1051/2/3 1054/2/3
f 1056/2/3 1053/2/3 1052/2/3
f 1057/2/3 1053/2/3 1056/2/3
f 1060/2/3 1059/2/3 1058/2/3
f 1061/2/3 1059/2/3 1060/2/3
f 1064/2/3 1063/2/3 1062/2/3
f 1065/2/3 1063/2/3 1064/2/3
f 1071/2/3 1067/2/3 1066/2/3
f 1072/2/3 1067/2/3 1071/2/3
f 1077/2/3 1070/2/3 1069/2/3
f 1077/2/3 1069/2/3 1068/2/3
f 1078/2/3 1070/2/3 1077/2/3
f 1080/2/3 1074/2/3 1073/2/3
f 1081/2/3 1074/2/3 1080/2/3
f 1083/2/3 1076/2/3 1075/2/3
f 1084/2/3 1076/2/3 1083/2/3
f 1087/2/3 1080/2/3 1079/2/3
f 1088/2/3 1080/2/3 1087/2/3
f 1089/2/3 1082/2/3 1081/2/3
f 1090/2/3 1082/2/3 1089/2/3
f 1093/2/3 1089/2/3 1088/2/3
f 1094/2/3 1089/2/3 1093/2/3
f 1095/2/3 1092/2/3 1091/2/3
f 1096/2/3 1092/2/3 1095/2/3
f 1097/2/3 1086/2/3 1085/2/3
f 1098/2/3 1086/2/3 1097/2/3
f 1099/2/3 1086/2/3 1098/2/3
f 1102/2/3 1101/2/3 1100/2/3
f 1103/2/3 1101/2/3 1102/2/3
f 1108/2/3 1107/2/3 1106/2/3
f 1109/2/3 1107/2/3 1108/2/3
f 1110/2/3 1105/2/3 1104/2/3
f 1111/2/3 1105/2/3 1110/2/3
f 1114/2/3 1113/2/3 1112/2/3
f 1115/2/3 1113/2/3 1114/2/3
f 1122/2/3 1117/2/3 1116/2/3
f 1123/2/3 1117/2/3 1122/2/3
f 1126/2/3 1119/2/3 1118/2/3
f 1127/2/3 1119/2/3 1126/2/3
f 1128/2/3 1121/2/3 1120/2/3
f 1129/2/3 1121/2/3 1128/2/3
f 1132/2/3 1125/2/3 1124/2/3
f 1132/2/3 1126/2/3 1125/2/3
f 1132/2/3 1124/2/3 1123/2/3
f 1133/2/3 1126/2/3 1132/2/3
f 1134/2/3 1126/2/3 1133/2/3
f 1135/2/3 1126/2/3 1134/2/3
f 1138/2/3 1130/2/3 1129/2/3
f 1139/2/3 1130/2/3 1138/2/3
f 1140/2/3 1132/2/3 1131/2/3
f 1141/2/3 1132/2/3 1140/2/3
f 1142/2/3 1136/2/3 1135/2/3
f 1143/2/3 1136/2/3 1142/2/3
f 1144/2/3 1138/2/3 1137/2/3
f 1145/2/3 1138/2/3 1144/2/3
f 1152/2/3 1147/2/3 1146/2/3
f 1153/2/3 1147/2/3 1152/2/3
f 1154/2/3 1149/2/3 1148/2/3
f 1155/2/3 1149/2/3 1154/2/3
f 1156/2/3 1151/2/3 1150/2/3
f 1157/2/3 1151/2/3 1156/2/3
f 1160/2/3 1159/2/3 1158/2/3
f 1161/2/3 1159/2/3 1160/2/3
f 1168/2/3 1163/2/3 1162/2/3
f 1169/2/3 1163/2/3 1168/2/3
f 1172/2/3 1165/2/3 1164/2/3
f 1173/2/3 1165/2/3 1172/2/3
f 1174/2/3 1167/2/3 1166/2/3
f 1175/2/3 1167/2/3 1174/2/3
f 1177/2/3 1170/2/3 1169/2/3
f 1178/2/3 1170/2/3 1177/2/3
f 1179/2/3 1172/2/3 1171/2/3
f 1180/2/3 1172/2/3 1179/2/3
f 1181/2/3 1176/2/3 1175/2/3
f 1182/2/3 1176/2/3 1181/2/3
f 1185/2/3 1184/2/3 1183/2/3
f 1186/2/3 1184/2/3 1185/2/3
f 1194/2/3 1188/2/3 1187/2/3
f 1195/2/3 1188/2/3 1194/2/3
f 1196/2/3 1190/2/3 1189/2/3
f 1197/2/3 1190/2/3 1196/2/3
f 1200/2/3 1192/2/3 1191/2/3
f 1201/2/3 1192/2/3 1200/2/3
f 1202/2/3 1194/2/3 1193/2/3
f 1203/2/3 1194/2/3 1202/2/3
f 1204/2/3 1198/2/3 1197/2/3
f 1205/2/3 1198/2/3 1204/2/3
f 1206/2/3 1200/2/3 1199/2/3
f 1207/2/3 1200/2/3 1206/2/3
f 1210/2/3 1209/2/3 1208/2/3
f 1211/2/3 1209/2/3 1210/2/3
f 1214/2/3 1213/2/3 1212/2/3
f 1215/2/3 1213/2/3 1214/2/3
f 1223/2/3 1219/2/3 1218/2/3
f 1224/2/3 1219/2/3 1223/2/3
f 1226/2/3 1221/2/3 1220/2/3
f 1227/2/3 1221/2/3 1226/2/3
f 1229/2/3 1217/2/3 1216/2/3
f 1230/2/3 1223/2/3 1222/2/3
f 1231/2/3 1223/2/3 1230/2/3
f 1232/2/3 1225/2/3 1224/2/3
f 1233/2/3 1225/2/3 1232/2/3
f 1235/2/3 1228/2/3 1227/2/3
f 1236/2/3 1228/2/3 1235/2/3
f 1237/2/3 1229/2/3 1216/2/3
f 1237/2/3 1230/2/3 1229/2/3
f 1238/2/3 1230/2/3 1237/2/3
f 1239/2/3 1234/2/3 1233/2/3
f 1240/2/3 1234/2/3 1239/2/3
f 1243/2/3 1242/2/3 1241/2/3
f 1244/2/3 1242/2/3 1243/2/3
f 1247/2/3 1245/2/3 1244/2/3
f 1248/2/3 1245/2/3 1247/2/3
f 1249/2/3 1247/2/3 1246/2/3
f 1250/2/3 1247/2/3 1249/2/3
f 1258/2/3 1252/2/3 1251/2/3
f 1259/2/3 1252/2/3 1258/2/3
f 1260/2/3 1254/2/3 1253/2/3
f 1261/2/3 1254/2/3 1260/2/3
f 1264/2/3 1256/2/3 1255/2/3
f 1265/2/3 1256/2/3 1264/2/3
f 1266/2/3 1258/2/3 1257/2/3
f 1267/2/3 1258/2/3 1266/2/3
f 1268/2/3 1262/2/3 1261/2/3
f 1269/2/3 1262/2/3 1268/2/3
f 1270/2/3 1264/2/3 1263/2/3
f 1271/2/3 1264/2/3 1270/2/3
f 1274/2/3 1260/2/3 1253/2/3
f 1275/2/3 1260/2/3 1274/2/3
f 1276/2/3 1270/2/3 1269/2/3
f 1277/2/3 1270/2/3 1276/2/3
f 1278/2/3 1273/2/3 1272/2/3
f 1279/2/3 1273/2/3 1278/2/3
f 1282/2/3 1281/2/3 1280/2/3
f 1283/2/3 1281/2/3 1282/2/3
f 1285/2/3 1284/2/3 1283/2/3
f 1286/2/3 1284/2/3 1285/2/3
f 1289/2/3 1287/2/3 1286/2/3
f 1290/2/3 1287/2/3 1289/2/3
f 1292/2/3 1289/2/3 1288/2/3
f 1293/2/3 1289/2/3 1292/2/3
f 1294/2/3 1292/2/3 1291/2/3
f 1295/2/3 1292/2/3 1294/2/3
f 1296/3/4 1297/3/4 1298/3/4
f 1298/3/4 1297/3/4 1299/3/4
f 1300/3/4 1301/3/4 1302/3/4
f 1302/3/4 1301/3/4 1303/3/4
f 1304/3/4 1305/3/4 1306/3/4
f 1306/3/4 1305/3/4 1307/3/4
f 1308/3/4 1309/3/4 1310/3/4
f 1310/3/4 1309/3/4 1311/3/4
f 1312/3/4 1313/3/4 1314/3/4
f 1314/3/4 1313/3/4 1315/3/4
f 1316/3/4 1317/3/4 1318/3/4
f 1318/3/4 1317/3/4 1319/3/4
f 1320/3/4 1321/3/4 1322/3/4
f 1322/3/4 1321/3/4 1323/3/4
f 1324/3/4 1325/3/4 1326/3/4
f 1326/3/4 1325/3/4 1327/3/4
f 1328/3/4 1329/3/4 1332/3/4
f 1332/3/4 1329/3/4 1333/3/4
f 1330/3/4 1331/3/4 1334/3/4
f 1334/3/4 1331/3/4 1335/3/4
f 1336/3/4 1337/3/4 1338/3/4
f 1338/3/4 1337/3/4 1339/3/4
f 1340/2/4 1341/2/4 1343/2/4
f 1342/2/4 1343/2/4 1345/2/4
f 1344/2/4 1345/2/4 1347/2/4
f 1346/2/4 1347/2/4 1349/2/4
f 1348/2/4 1349/2/4 1351/2/4
f 1345/2/4 1343/2/4 1352/2/4
f 1347/2/4 1345/2/4 1352/2/4
f 1351/2/4 1349/2/4 1352/2/4
f 1349/2/4 1347/2/4 1352/2/4
f 1343/2/4 1341/2/4 1353/2/4
f 1352/2/4 1343/2/4 1353/2/4
f 1351/2/4 1352/2/4 1354/2/4
f 1350/2/4 1351/2/4 1354/2/4
f 1354/2/4 1352/2/4 1355/2/4
f 1355/2/4 1352/2/4 1356/2/4
f 1356/2/4 1352/2/4 1357/2/4
f 1357/2/4 1352/2/4 1358/2/4
f 1353/2/4 1341/2/4 1359/2/4
f 1357/2/4 1358/2/4 1360/2/4
f 1358/2/4 1359/2/4 1360/2/4
f 1360/2/4 1359/2/4 1361/2/4
f 1361/2/4 1359/2/4 1362/2/4
f 1362/2/4 1359/2/4 1363/2/4
f 1363/2/4 1359/2/4 1364/2/4
f 1364/2/4 1359/2/4 1365/2/4
f 1365/2/4 1359/2/4 1366/2/4
f 1359/2/4 1341/2/4 1367/2/4
f 1366/2/4 1359/2/4 1367/2/4
f 1368/2/4 1369/2/4 1370/2/4
f 1370/2/4 1369/2/4 1371/2/4
f 1372/2/4 1373/2/4 1374/2/4
f 1374/2/4 1373/2/4 1375/2/4
f 1376/2/4 1377/2/4 1380/2/4
f 1380/2/4 1377/2/4 1381/2/4
f 1378/2/4 1379/2/4 1382/2/4
f 1382/2/4 1379/2/4 1383/2/4
f 1384/2/4 1385/2/4 1386/2/4
f 1386/2/4 1385/2/4 1387/2/4
f 1388/2/4 1389/2/4 1391/2/4
f 1391/2/4 1389/2/4 1392/2/4
f 1390/2/4 1391/2/4 1395/2/4
f 1395/2/4 1391/2/4 1396/2/4
f 1393/2/4 1394/2/4 1397/2/4
f 1397/2/4 1394/2/4 1398/2/4
f 1399/2/4 1400/2/4 1401/2/4
f 1401/2/4 1400/2/4 1402/2/4
f 1403/2/4 1404/2/4 1405/2/4
f 1405/2/4 1404/2/4 1406/2/4
f 1407/2/4 1408/2/4 1409/2/4
f 1409/2/4 1408/2/4 1410/2/4
f 1411/2/4 1412/2/4 1413/2/4
f 1413/2/4 1412/2/4 1414/2/4
f 1415/2/4 1416/2/4 1417/2/4
f 1417/2/4 1416/2/4 1418/2/4
f 1419/2/4 1420/2/4 1421/2/4
f 1421/2/4 1420/2/4 1422/2/4
f 1423/2/4 1424/2/4 1425/2/4
f 1425/2/4 1424/2/4 1426/2/4
f 1426/2/4 1427/2/4 1428/2/4
f 1428/2/4 1427/2/4 1429/2/4
f 1429/2/4 1430/2/4 1432/2/4
f 1432/2/4 1430/2/4 1433/2/4
f 1431/2/4 1432/2/4 1435/2/4
f 1435/2/4 1432/2/4 1436/2/4
f 1434/2/4 1435/2/4 1437/2/4
f 1437/2/4 1435/2/4 1438/2/4
f 1439/2/4 1440/2/4 1441/2/4
f 1441/2/4 1440/2/4 1442/2/4
f 1443/2/4 1444/2/4 1445/2/4
f 1445/2/4 1444/2/4 1446/2/4
f 1447/2/4 1448/2/4 1454/2/4
f 1454/2/4 1448/2/4 1455/2/4
f 1449/2/4 1450/2/4 1457/2/4
f 1457/2/4 1450/2/4 1458/2/4
f 1451/2/4 1452/2/4 1459/2/4
f 1459/2/4 1452/2/4 1460/2/4
f 1453/2/4 1454/2/4 1461/2/4
f 1461/2/4 1454/2/4 1462/2/4
f 1455/2/4 1456/2/4 1463/2/4
f 1463/2/4 1456/2/4 1464/2/4
f 1459/2/4 1460/2/4 1466/2/4
f 1460/2/4 1461/2/4 1466/2/4
f 1458/2/4 1459/2/4 1466/2/4
f 1466/2/4 1461/2/4 1467/2/4
f 1464/2/4 1465/2/4 1468/2/4
f 1468/2/4 1465/2/4 1469/2/4
f 1470/2/4 1471/2/4 1472/2/4
f 1472/2/4 1471/2/4 1473/2/4
f 1473/2/4 1474/2/4 1476/2/4
f 1476/2/4 1474/2/4 1477/2/4
f 1475/2/4 1476/2/4 1478/2/4
f 1478/2/4 1476/2/4 1479/2/4
f 1480/2/4 1481/2/4 1485/2/4
f 1485/2/4 1481/2/4 1486/2/4
f 1486/2/4 1481/2/4 1487/2/4
f 1487/2/4 1481/2/4 1488/2/4
f 1482/2/4 1483/2/4 1491/2/4
f 1491/2/4 1483/2/4 1492/2/4
f 1484/2/4 1485/2/4 1493/2/4
f 1493/2/4 1485/2/4 1494/2/4
f 1486/2/4 1487/2/4 1495/2/4
f 1495/2/4 1487/2/4 1496/2/4
f 1488/2/4 1489/2/4 1497/2/4
f 1497/2/4 1489/2/4 1498/2/4
f 1490/2/4 1491/2/4 1499/2/4
f 1499/2/4 1491/2/4 1500/2/4
f 1498/2/4 1499/2/4 1503/2/4
f 1503/2/4 1499/2/4 1504/2/4
f 1501/2/4 1502/2/4 1505/2/4
f 1505/2/4 1502/2/4 1506/2/4
f 1507/2/4 1508/2/4 1509/2/4
f 1509/2/4 1508/2/4 1510/2/4
f 1511/2/4 1512/2/4 1517/2/4
f 1517/2/4 1512/2/4 1518/2/4
f 1513/2/4 1514/2/4 1519/2/4
f 1519/2/4 1514/2/4 1520/2/4
f 1515/2/4 1516/2/4 1521/2/4
f 1521/2/4 1516/2/4 1522/2/4
f 1518/2/4 1519/2/4 1524/2/4
f 1524/2/4 1519/2/4 1525/2/4
f 1522/2/4 1523/2/4 1526/2/4
f 1526/2/4 1523/2/4 1527/2/4
f 1528/2/4 1529/2/4 1530/2/4
f 1530/2/4 1529/2/4 1531/2/4
f 1532/2/4 1533/2/4 1537/2/4
f 1537/2/4 1533/2/4 1538/2/4
f 1534/2/4 1535/2/4 1541/2/4
f 1541/2/4 1535/2/4 1542/2/4
f 1536/2/4 1537/2/4 1543/2/4
f 1543/2/4 1537/2/4 1544/2/4
f 1538/2/4 1539/2/4 1545/2/4
f 1545/2/4 1539/2/4 1546/2/4
f 1540/2/4 1541/2/4 1547/2/4
f 1547/2/4 1541/2/4 1548/2/4
f 1549/2/4 1550/2/4 1551/2/4
f 1551/2/4 1550/2/4 1552/2/4
f 1553/2/4 1554/2/4 1555/2/4
f 1555/2/4 1554/2/4 1556/2/4
f 1557/2/4 1558/2/4 1559/2/4
f 1559/2/4 1558/2/4 1560/2/4
f 1561/2/4 1562/2/4 1567/2/4
f 1567/2/4 1562/2/4 1568/2/4
f 1563/2/4 1564/2/4 1569/2/4
f 1569/2/4 1564/2/4 1570/2/4
f 1565/2/4 1566/2/4 1571/2/4
f 1571/2/4 1566/2/4 1572/2/4
f 1568/2/4 1569/2/4 1575/2/4
f 1575/2/4 1569/2/4 1576/2/4
f 1572/2/4 1573/2/4 1579/2/4
f 1579/2/4 1573/2/4 1580/2/4
f 1574/2/4 1575/2/4 1581/2/4
f 1581/2/4 1575/2/4 1582/2/4
f 1576/2/4 1577/2/4 1583/2/4
f 1583/2/4 1577/2/4 1584/2/4
f 1578/2/4 1579/2/4 1585/2/4
f 1585/2/4 1579/2/4 1586/2/4
f 1587/2/4 1588/2/4 1591/2/4
f 1591/2/4 1588/2/4 1592/2/4
f 1589/2/4 1590/2/4 1593/2/4
f 1593/2/4 1590/2/4 1594/2/4
f 1595/2/4 1596/2/4 1597/2/4
f 1597/2/4 1596/2/4 1598/2/4
f 1599/2/4 1600/2/4 1601/2/4
f 1601/2/4 1600/2/4 1602/2/4
f 1603/2/4 1604/2/4 1608/2/4
f 1608/2/4 1604/2/4 1609/2/4
f 1605/2/4 1606/2/4 1611/2/4
f 1611/2/4 1606/2/4 1612/2/4
f 1607/2/4 1608/2/4 1613/2/4
f 1613/2/4 1608/2/4 1614/2/4
f 1609/2/4 1610/2/4 1615/2/4
f 1615/2/4 1610/2/4 1616/2/4
f 1614/2/4 1615/2/4 1619/2/4
f 1619/2/4 1615/2/4 1620/2/4
f 1617/2/4 1618/2/4 1621/2/4
f 1621/2/4 1618/2/4 1622/2/4
f 1623/2/4 1624/2/4 1625/2/4
f 1625/2/4 1624/2/4 1626/2/4
f 1627/2/4 1628/2/4 1629/2/4
f 1629/2/4 1628/2/4 1630/2/4
f 1631/2/4 1632/2/4 1633/2/4
f 1633/2/4 1632/2/4 1634/2/4
f 1635/2/4 1636/2/4 1639/2/4
f 1639/2/4 1636/2/4 1640/2/4
f 1637/2/4 1638/2/4 1641/2/4
f 1641/2/4 1638/2/4 1642/2/4
f 1643/2/4 1644/2/4 1645/2/4
f 1645/2/4 1644/2/4 1646/2/4
f 1647/2/4 1648/2/4 1649/2/4
f 1649/2/4 1648/2/4 1650/2/4
f 1651/2/4 1652/2/4 1653/2/4
f 1653/2/4 1652/2/4 1654/2/4
f 1655/2/4 1656/2/4 1657/2/4
f 1657/2/4 1656/2/4 1658/2/4
f 1659/2/4 1660/2/4 1661/2/4
f 1661/2/4 1660/2/4 1662/2/4
f 1663/2/4 1664/2/4 1665/2/4
f 1665/2/4 1664/2/4 1666/2/4
f 1667/2/4 1668/2/4 1669/2/4
f 1669/2/4 1668/2/4 1670/2/4
f 1674/2/5 1672/2/5 1671/2/5
f 1675/2/5 1672/2/5 1674/2/5
f 1678/2/5 1674/2/5 1673/2/5
f 1678/2/5 1676/2/5 1675/2/5
f 1678/2/5 1675/2/5 1674/2/5
f 1679/2/5 1676/2/5 1678/2/5
f 1682/2/5 1678/2/5 1677/2/5
f 1682/2/5 1680/2/5 1679/2/5
f 1682/2/5 1679/2/5 1678/2/5
f 1683/2/5 1680/2/5 1682/2/5
f 1686/2/5 1682/2/5 1681/2/5
f 1686/2/5 1684/2/5 1683/2/5
f 1686/2/5 1683/2/5 1682/2/5
f 1687/2/5 1684/2/5 1686/2/5
f 1690/2/5 1686/2/5 1685/2/5
f 1690/2/5 1688/2/5 1687/2/5
f 1690/2/5 1687/2/5 1686/2/5
f 1691/2/5 1688/2/5 1690/2/5
f 1693/2/5 1690/2/5 1689/2/5
f 1693/2/5 1692/2/5 1691/2/5
f 1693/2/5 1691/2/5 1690/2/5
f 1694/2/5 1692/2/5 1693/2/5
f 1695/2/5 1692/2/5 1694/2/5
f 1696/2/5 1692/2/5 1695/2/5
f 1697/2/5 1695/2/5 1694/2/5
f 1698/2/5 1695/2/5 1697/2/5
f 1699/2/5 1695/2/5 1698/2/5
f 1700/2/5 1695/2/5 1699/2/5
f 1701/2/5 1699/2/5 1698/2/5
f 1702/2/5 1699/2/5 1701/2/5
f 1703/2/5 1699/2/5 1702/2/5
f 1704/2/5 1699/2/5 1703/2/5
f 1705/2/5 1703/2/5 1702/2/5
f 1706/2/5 1703/2/5 1705/2/5
f 1707/2/5 1703/2/5 1706/2/5
f 1708/2/5 1703/2/5 1707/2/5
f 1709/2/5 1707/2/5 1706/2/5
f 1710/2/5 1707/2/5 1709/2/5
f 1711/2/5 1707/2/5 1710/2/5
f 1712/2/5 1707/2/5 1711/2/5
f 1713/2/5 1711/2/5 1710/2/5
f 1714/2/5 1711/2/5 1713/2/5
f 1717/1/5 1716/1/5 1715/1/5
f 1718/1/5 1716/1/5 1717/1/5
f 1719/2/5 1718/2/5 1717/2/5
f 1720/2/5 1718/2/5 1719/2/5
f 1725/1/5 1722/1/5 1721/1/5
f 1726/1/5 1722/1/5 1725/1/5
f 1727/1/5 1724/1/5 1723/1/5
f 1728/1/5 1724/1/5 1727/1/5
f 1729/2/5 1726/2/5 1725/2/5
f 1730/2/5 1726/2/5 1729/2/5
f 1731/2/5 1728/2/5 1727/2/5
f 1732/2/5 1728/2/5 1731/2/5
f 1737/1/5 1734/1/5 1733/1/5
f 1738/1/5 1734/1/5 1737/1/5
f 1739/1/5 1736/1/5 1735/1/5
f 1740/1/5 1736/1/5 1739/1/5
f 1741/2/5 1738/2/5 1737/2/5
f 1742/2/5 1738/2/5 1741/2/5
f 1743/2/5 1740/2/5 1739/2/5
f 1744/2/5 1740/2/5 1743/2/5
f 1749/1/5 1746/1/5 1745/1/5
f 1750/1/5 1746/1/5 1749/1/5
f 1751/1/5 1748/1/5 1747/1/5
f 1752/1/5 1748/1/5 1751/1/5
f 1753/2/5 1750/2/5 1749/2/5
f 1754/2/5 1750/2/5 1753/2/5
f 1755/2/5 1752/2/5 1751/2/5
f 1756/2/5 1752/2/5 1755/2/5
f 1761/1/5 1758/1/5 1757/1/5
f 1762/1/5 1758/1/5 1761/1/5
f 1763/1/5 1760/1/5 1759/1/5
f 1764/1/5 1760/1/5 1763/1/5
f 1765/2/5 1762/2/5 1761/2/5
f 1766/2/5 1762/2/5 1765/2/5
f 1767/2/5 1764/2/5 1763/2/5
f 1768/2/5 1764/2/5 1767/2/5
f 1771/3/5 1770/3/5 1769/3/5
f 1772/3/5 1770/3/5 1771/3/5
f 1777/2/5 1774/2/5 1773/2/5
f 1778/2/5 1774/2/5 1777/2/5
f 1779/2/5 1774/2/5 1778/2/5
f 1780/2/5 1774/2/5 1779/2/5
f 1781/2/5 1776/2/5 1775/2/5
f 1782/2/5 1776/2/5 1781/2/5
f 1783/2/5 1779/2/5 1778/2/5
f 1784/2/5 1779/2/5 1783/2/5
f 1796/3/5 1786/3/5 1785/3/5
f 1797/3/5 1786/3/5 1796/3/5
f 1799/1/5 1788/1/5 1787/1/5
f 1800/1/5 1788/1/5 1799/1/5
f 1801/1/5 1790/1/5 1789/1/5
f 1802/1/5 1790/1/5 1801/1/5
f 1803/1/5 1792/1/5 1791/1/5
f 1804/1/5 1792/1/5 1803/1/5
f 1805/1/5 1794/1/5 1793/1/5
f 1806/1/5 1794/1/5 1805/1/5
f 1807/2/5 1798/2/5 1797/2/5
f 1807/2/5 1796/2/5 1795/2/5
f 1807/2/5 1797/2/5 1796/2/5
f 1808/2/5 1798/2/5 1807/2/5
f 1809/2/5 1800/2/5 1799/2/5
f 1810/2/5 1800/2/5 1809/2/5
f 1811/2/5 1806/2/5 1805/2/5
f 1812/2/5 1806/2/5 1811/2/5
f 1819/2/5 1814/2/5 1813/2/5
f 1820/2/5 1814/2/5 1819/2/5
f 1821/2/5 1816/2/5 1815/2/5
f 1822/2/5 1816/2/5 1821/2/5
f 1825/2/5 1818/2/5 1817/2/5
f 1826/2/5 1818/2/5 1825/2/5
f 1827/2/5 1818/2/5 1826/2/5
f 1828/2/5 1823/2/5 1822/2/5
f 1828/2/5 1821/2/5 1820/2/5
f 1828/2/5 1822/2/5 1821/2/5
f 1829/2/5 1826/2/5 1825/2/5
f 1829/2/5 1825/2/5 1824/2/5
f 1830/2/5 1828/2/5 1820/2/5
f 1831/2/5 1828/2/5 1830/2/5
f 1832/2/5 1826/2/5 1829/2/5
f 1833/2/5 1826/2/5 1832/2/5
f 1834/2/5 1830/2/5 1820/2/5
f 1835/2/5 1830/2/5 1834/2/5
f 1836/2/5 1826/2/5 1833/2/5
f 1837/2/5 1826/2/5 1836/2/5
f 1838/2/5 1834/2/5 1820/2/5
f 1839/2/5 1834/2/5 1838/2/5
f 1840/2/5 1826/2/5 1837/2/5
f 1841/2/5 1826/2/5 1840/2/5
f 1842/2/5 1834/2/5 1839/2/5
f 1843/2/5 1834/2/5 1842/2/5
f 1844/2/5 1840/2/5 1837/2/5
f 1845/2/5 1840/2/5 1844/2/5
f 1846/2/5 1834/2/5 1843/2/5
f 1847/2/5 1834/2/5 1846/2/5
f 1848/2/5 1844/2/5 1837/2/5
f 1849/2/5 1844/2/5 1848/2/5
f 1854/3/5 1851/3/5 1850/3/5
f 1855/3/5 1851/3/5 1854/3/5
f 1856/3/5 1853/3/5 1852/3/5
f 1857/3/5 1853/3/5 1856/3/5
f 1862/2/5 1859/2/5 1858/2/5
f 1863/2/5 1859/2/5 1862/2/5
f 1864/2/5 1861/2/5 1860/2/5
f 1865/2/5 1861/2/5 1864/2/5
f 1868/3/5 1867/3/5 1866/3/5
f 1869/3/5 1867/3/5 1868/3/5
f 1872/2/5 1871/2/5 1870/2/5
f 1873/2/5 1871/2/5 1872/2/5
f 1876/3/5 1875/3/5 1874/3/5
f 1877/3/5 1875/3/5 1876/3/5
f 1880/2/5 1879/2/5 1878/2/5
f 1881/2/5 1879/2/5 1880/2/5
f 1884/3/5 1883/3/5 1882/3/5
f 1885/3/5 1883/3/5 1884/3/5
f 1888/3/5 1887/3/5 1886/3/5
f 1889/3/5 1887/3/5 1888/3/5
f 1892/3/5 1891/3/5 1890/3/5
f 1893/3/5 1891/3/5 1892/3/5
f 1898/1/5 1895/1/5 1894/1/5
f 1899/1/5 1895/1/5 1898/1/5
f 1900/1/5 1897/1/5 1896/1/5
f 1901/1/5 1897/1/5 1900/1/5
f 1904/3/5 1903/3/5 1902/3/5
f 1905/3/5 1903/3/5 1904/3/5
f 1908/3/5 1907/3/5 1906/3/5
f 1909/3/5 1907/3/5 1908/3/5
f 1912/3/5 1911/3/5 1910/3/5
f 1913/3/5 1911/3/5 1912/3/5
f 1917/2/5 1915/2/5 1914/2/5
f 1918/2/5 1915/2/5 1917/2/5
f 1921/2/5 1917/2/5 1916/2/5
f 1922/2/5 1917/2/5 1921/2/5
f 1923/2/5 1919/2/5 1918/2/5
f 1924/2/5 1919/2/5 1923/2/5
f 1927/2/5 1921/2/5 1920/2/5
f 1928/2/5 1921/2/5 1927/2/5
f 1929/2/5 1925/2/5 1924/2/5
f 1930/2/5 1925/2/5 1929/2/5
f 1932/2/5 1927/2/5 1926/2/5
f 1933/2/5 1927/2/5 1932/2/5
f 1936/2/5 1931/2/5 1930/2/5
f 1937/2/5 1931/2/5 1936/2/5
f 1938/2/5 1934/2/5 1933/2/5
f 1939/2/5 1934/2/5 1938/2/5
f 1942/2/5 1936/2/5 1935/2/5
f 1943/2/5 1936/2/5 1942/2/5
f 1944/2/5 1940/2/5 1939/2/5
f 1945/2/5 1940/2/5 1944/2/5
f 1946/2/5 1942/2/5 1941/2/5
f 1947/2/5 1942/2/5 1946/2/5
f 1948/2/5 1946/2/5 1945/2/5
f 1949/2/5 1946/2/5 1948/2/5
f 1952/3/5 1951/3/5 1950/3/5
f 1953/3/5 1951/3/5 1952/3/5
f 1956/3/5 1955/3/5 1954/3/5
f 1957/3/5 1955/3/5 1956/3/5
f 1961/2/5 1959/2/5 1958/2/5
f 1962/2/5 1959/2/5 1961/2/5
f 1965/2/5 1961/2/5 1960/2/5
f 1966/2/5 1961/2/5 1965/2/5
f 1967/2/5 1961/2/5 1966/2/5
f 1968/2/5 1963/2/5 1962/2/5
f 1969/2/5 1963/2/5 1968/2/5
f 1970/2/5 1963/2/5 1969/2/5
f 1972/2/5 1965/2/5 1964/2/5
f 1972/2/5 1966/2/5 1965/2/5
f 1973/2/5 1966/2/5 1972/2/5
f 1974/2/5 1971/2/5 1970/2/5
f 1974/2/5 1970/2/5 1969/2/5
f 1975/2/5 1971/2/5 1974/2/5
f 1977/2/5 1972/2/5 1964/2/5
f 1978/2/5 1972/2/5 1977/2/5
f 1979/2/5 1971/2/5 1975/2/5
f 1980/2/5 1971/2/5 1979/2/5
f 1982/2/5 1977/2/5 1976/2/5
f 1983/2/5 1977/2/5 1982/2/5
f 1986/2/5 1981/2/5 1980/2/5
f 1987/2/5 1981/2/5 1986/2/5
f 1988/2/5 1984/2/5 1983/2/5
f 1991/2/5 1986/2/5 1985/2/5
f 1992/2/5 1989/2/5 1988/2/5
f 1992/2/5 1988/2/5 1983/2/5
f 1993/2/5 1989/2/5 1992/2/5
f 1994/2/5 1989/2/5 1993/2/5
f 1997/2/5 1991/2/5 1990/2/5
f 1998/2/5 1986/2/5 1991/2/5
f 1998/2/5 1991/2/5 1997/2/5
f 1999/2/5 1986/2/5 1998/2/5
f 2000/2/5 1995/2/5 1994/2/5
f 2000/2/5 1994/2/5 1993/2/5
f 2001/2/5 1995/2/5 2000/2/5
f 2002/2/5 1997/2/5 1996/2/5
f 2002/2/5 1998/2/5 1997/2/5
f 2003/2/5 1998/2/5 2002/2/5
f 2004/2/5 2002/2/5 2001/2/5
f 2005/2/5 2002/2/5 2004/2/5
f 2006/2/6 2007/2/6 2009/2/6
f 2009/2/6 2007/2/6 2010/2/6
f 2008/2/6 2009/2/6 2013/2/6
f 2010/2/6 2011/2/6 2013/2/6
f 2009/2/6 2010/2/6 2013/2/6
f 2013/2/6 2011/2/6 2014/2/6
f 2014/2/6 2011/2/6 2015/2/6
f 2015/2/6 2011/2/6 2016/2/6
f 2012/2/6 2013/2/6 2019/2/6
f 2013/2/6 2014/2/6 2019/2/6
f 2019/2/6 2014/2/6 2020/2/6
f 2020/2/6 2014/2/6 2021/2/6
f 2015/2/6 2016/2/6 2022/2/6
f 2016/2/6 2017/2/6 2022/2/6
f 2022/2/6 2017/2/6 2023/2/6
f 2023/2/6 2017/2/6 2024/2/6
f 2019/2/6 2020/2/6 2027/2/6
f 2018/2/6 2019/2/6 2027/2/6
f 2027/2/6 2020/2/6 2028/2/6
f 2028/2/6 2020/2/6 2029/2/6
f 2024/2/6 2025/2/6 2030/2/6
f 2023/2/6 2024/2/6 2030/2/6
f 2030/2/6 2025/2/6 2031/2/6
f 2031/2/6 2025/2/6 2032/2/6
f 2027/2/6 2028/2/6 2034/2/6
f 2026/2/6 2027/2/6 2034/2/6
f 2034/2/6 2028/2/6 2035/2/6
f 2032/2/6 2033/2/6 2036/2/6
f 2031/2/6 2032/2/6 2036/2/6
f 2036/2/6 2033/2/6 2037/2/6
f 2026/2/6 2034/2/6 2039/2/6
f 2037/2/6 2033/2/6 2040/2/6
f 2038/2/6 2039/2/6 2042/2/6
f 2039/2/6 2034/2/6 2042/2/6
f 2042/2/6 2034/2/6 2043/2/6
f 2040/2/6 2041/2/6 2044/2/6
f 2037/2/6 2040/2/6 2044/2/6
f 2044/2/6 2041/2/6 2045/2/6
f 2038/2/6 2042/2/6 2046/2/6
f 2045/2/6 2041/2/6 2049/2/6
f 2046/2/6 2047/2/6 2050/2/6
f 2038/2/6 2046/2/6 2050/2/6
f 2050/2/6 2047/2/6 2051/2/6
f 2048/2/6 2049/2/6 2052/2/6
f 2049/2/6 2041/2/6 2052/2/6
f 2052/2/6 2041/2/6 2053/2/6
f 2051/2/6 2047/2/6 2054/2/6
f 2048/2/6 2052/2/6 2057/2/6
f 2054/2/6 2055/2/6 2058/2/6
f 2051/2/6 2054/2/6 2058/2/6
f 2058/2/6 2055/2/6 2059/2/6
f 2059/2/6 2055/2/6 2060/2/6
f 2056/2/6 2057/2/6 2063/2/6
f 2057/2/6 2052/2/6 2064/2/6
f 2063/2/6 2057/2/6 2064/2/6
f 2064/2/6 2052/2/6 2065/2/6
f 2060/2/6 2061/2/6 2066/2/6
f 2059/2/6 2060/2/6 2066/2/6
f 2066/2/6 2061/2/6 2067/2/6
f 2067/2/6 2061/2/6 2068/2/6
f 2062/2/6 2063/2/6 2071/2/6
f 2063/2/6 2064/2/6 2071/2/6
f 2071/2/6 2064/2/6 2072/2/6
f 2072/2/6 2064/2/6 2073/2/6
f 2068/2/6 2069/2/6 2074/2/6
f 2067/2/6 2068/2/6 2074/2/6
f 2074/2/6 2069/2/6 2075/2/6
f 2075/2/6 2069/2/6 2076/2/6
f 2071/2/6 2072/2/6 2077/2/6
f 2070/2/6 2071/2/6 2077/2/6
f 2077/2/6 2072/2/6 2078/2/6
f 2078/2/6 2072/2/6 2079/2/6
f 2075/2/6 2076/2/6 2080/2/6
f 2077/2/6 2078/2/6 2080/2/6
f 2076/2/6 2077/2/6 2080/2/6
f 2080/2/6 2078/2/6 2081/2/6
f 2081/2/6 2078/2/6 2082/2/6
f 2082/2/6 2078/2/6 2083/2/6
f 2081/2/6 2082/2/6 2084/2/6
f 2084/2/6 2082/2/6 2085/2/6
f 2086/2/6 2087/2/6 2089/2/6
f 2089/2/6 2087/2/6 2090/2/6
f 2088/2/6 2089/2/6 2093/2/6
f 2090/2/6 2091/2/6 2093/2/6
f 2089/2/6 2090/2/6 2093/2/6
f 2093/2/6 2091/2/6 2094/2/6
f 2094/2/6 2091/2/6 2095/2/6
f 2095/2/6 2091/2/6 2096/2/6
f 2092/2/6 2093/2/6 2099/2/6
f 2093/2/6 2094/2/6 2099/2/6
f 2099/2/6 2094/2/6 2100/2/6
f 2100/2/6 2094/2/6 2101/2/6
f 2095/2/6 2096/2/6 2102/2/6
f 2096/2/6 2097/2/6 2102/2/6
f 2102/2/6 2097/2/6 2103/2/6
f 2103/2/6 2097/2/6 2104/2/6
f 2099/2/6 2100/2/6 2106/2/6
f 2098/2/6 2099/2/6 2106/2/6
f 2106/2/6 2100/2/6 2107/2/6
f 2104/2/6 2105/2/6 2108/2/6
f 2103/2/6 2104/2/6 2108/2/6
f 2108/2/6 2105/2/6 2109/2/6
f 2098/2/6 2106/2/6 2111/2/6
f 2111/2/6 2106/2/6 2112/2/6
f 2112/2/6 2106/2/6 2113/2/6
f 2109/2/6 2105/2/6 2114/2/6
f 2114/2/6 2105/2/6 2115/2/6
f 2115/2/6 2105/2/6 2116/2/6
f 2110/2/6 2111/2/6 2118/2/6
f 2111/2/6 2112/2/6 2118/2/6
f 2118/2/6 2112/2/6 2119/2/6
f 2119/2/6 2112/2/6 2120/2/6
f 2116/2/6 2117/2/6 2123/2/6
f 2115/2/6 2116/2/6 2123/2/6
f 2123/2/6 2117/2/6 2124/2/6
f 2124/2/6 2117/2/6 2125/2/6
f 2120/2/6 2121/2/6 2126/2/6
f 2119/2/6 2120/2/6 2126/2/6
f 2123/2/6 2124/2/6 2129/2/6
f 2122/2/6 2123/2/6 2129/2/6
f 2126/2/6 2127/2/6 2130/2/6
f 2119/2/6 2126/2/6 2130/2/6
f 2130/2/6 2127/2/6 2131/2/6
f 2131/2/6 2127/2/6 2132/2/6
f 2128/2/6 2129/2/6 2135/2/6
f 2129/2/6 2124/2/6 2136/2/6
f 2135/2/6 2129/2/6 2136/2/6
f 2136/2/6 2124/2/6 2137/2/6
f 2132/2/6 2133/2/6 2138/2/6
f 2131/2/6 2132/2/6 2138/2/6
f 2138/2/6 2133/2/6 2139/2/6
f 2139/2/6 2133/2/6 2140/2/6
f 2134/2/6 2135/2/6 2141/2/6
f 2135/2/6 2136/2/6 2141/2/6
f 2141/2/6 2136/2/6 2142/2/6
f 2142/2/6 2136/2/6 2143/2/6
f 2139/2/6 2140/2/6 2144/2/6
f 2141/2/6 2142/2/6 2144/2/6
f 2140/2/6 2141/2/6 2144/2/6
f 2144/2/6 2142/2/6 2145/2/6
f 2145/2/6 2142/2/6 2146/2/6
f 2146/2/6 2142/2/6 2147/2/6
f 2145/2/6 2146/2/6 2148/2/6
f 2148/2/6 2146/2/6 2149/2/6
f 2150/2/6 2151/2/6 2153/2/6
f 2153/2/6 2151/2/6 2154/2/6
f 2152/2/6 2153/2/6 2157/2/6
f 2157/2/6 2153/2/6 2158/2/6
f 2154/2/6 2155/2/6 2159/2/6
f 2159/2/6 2155/2/6 2160/2/6
f 2156/2/6 2157/2/6 2163/2/6
f 2163/2/6 2157/2/6 2164/2/6
f 2160/2/6 2161/2/6 2165/2/6
f 2165/2/6 2161/2/6 2166/2/6
f 2162/2/6 2163/2/6 2168/2/6
f 2168/2/6 2163/2/6 2169/2/6
f 2166/2/6 2167/2/6 2172/2/6
f 2172/2/6 2167/2/6 2173/2/6
f 2169/2/6 2170/2/6 2174/2/6
f 2174/2/6 2170/2/6 2175/2/6
f 2171/2/6 2172/2/6 2178/2/6
f 2178/2/6 2172/2/6 2179/2/6
f 2175/2/6 2176/2/6 2180/2/6
f 2180/2/6 2176/2/6 2181/2/6
f 2177/2/6 2178/2/6 2182/2/6
f 2182/2/6 2178/2/6 2183/2/6
f 2181/2/6 2182/2/6 2184/2/6
f 2184/2/6 2182/2/6 2185/2/6
f 2186/1/6 2187/1/6 2190/1/6
f 2190/1/6 2187/1/6 2191/1/6
f 2188/1/6 2189/1/6 2192/1/6
f 2192/1/6 2189/1/6 2193/1/6
f 2194/1/6 2195/1/6 2198/1/6
f 2198/1/6 2195/1/6 2199/1/6
f 2196/1/6 2197/1/6 2200/1/6
f 2200/1/6 2197/1/6 2201/1/6
f 2202/1/6 2203/1/6 2206/1/6
f 2206/1/6 2203/1/6 2207/1/6
f 2204/1/6 2205/1/6 2208/1/6
f 2208/1/6 2205/1/6 2209/1/6
f 2210/1/6 2211/1/6 2214/1/6
f 2214/1/6 2211/1/6 2215/1/6
f 2212/1/6 2213/1/6 2216/1/6
f 2216/1/6 2213/1/6 2217/1/6
f 2218/3/6 2219/3/6 2220/3/6
f 2220/3/6 2219/3/6 2221/3/6
f 2222/2/6 2223/2/6 2224/2/6
f 2224/2/6 2223/2/6 2225/2/6
f 2226/3/6 2227/3/6 2228/3/6
f 2228/3/6 2227/3/6 2229/3/6
f 2230/3/6 2231/3/6 2236/3/6
f 2236/3/6 2231/3/6 2237/3/6
f 2232/3/6 2233/3/6 2238/3/6
f 2238/3/6 2233/3/6 2239/3/6
f 2234/2/6 2235/2/6 2244/2/6
f 2240/2/6 2241/2/6 2245/2/6
f 2245/2/6 2241/2/6 2246/2/6
f 2244/2/6 2245/2/6 2246/2/6
f 2242/2/6 2243/2/6 2247/2/6
f 2244/2/6 2246/2/6 2248/2/6
f 2234/2/6 2244/2/6 2248/2/6
f 2248/2/6 2246/2/6 2249/2/6
f 2249/2/6 2246/2/6 2250/2/6
f 2247/2/6 2243/2/6 2251/2/6
f 2251/2/6 2243/2/6 2252/2/6
f 2252/2/6 2243/2/6 2253/2/6
f 2254/1/6 2255/1/6 2258/1/6
f 2258/1/6 2255/1/6 2259/1/6
f 2256/1/6 2257/1/6 2260/1/6
f 2260/1/6 2257/1/6 2261/1/6
f 2262/2/6 2263/2/6 2267/2/6
f 2267/2/6 2263/2/6 2268/2/6
f 2264/2/6 2265/2/6 2269/2/6
f 2269/2/6 2265/2/6 2270/2/6
f 2267/2/6 2268/2/6 2272/2/6
f 2266/2/6 2267/2/6 2272/2/6
f 2272/2/6 2268/2/6 2273/2/6
f 2270/2/6 2271/2/6 2274/2/6
f 2269/2/6 2270/2/6 2274/2/6
f 2274/2/6 2271/2/6 2275/2/6
f 2266/2/6 2272/2/6 2276/2/6
f 2276/2/6 2272/2/6 2277/2/6
f 2275/2/6 2271/2/6 2278/2/6
f 2278/2/6 2271/2/6 2279/2/6
f 2266/2/6 2276/2/6 2280/2/6
f 2280/2/6 2276/2/6 2281/2/6
f 2279/2/6 2271/2/6 2282/2/6
f 2282/2/6 2271/2/6 2283/2/6
f 2284/2/6 2285/2/6 2286/2/6
f 2286/2/6 2285/2/6 2287/2/6
f 2288/2/6 2289/2/6 2292/2/6
f 2292/2/6 2289/2/6 2293/2/6
f 2290/2/6 2291/2/6 2294/2/6
f 2294/2/6 2291/2/6 2295/2/6
f 2293/2/6 2289/2/6 2296/2/6
f 2296/2/6 2289/2/6 2297/2/6
f 2290/2/6 2294/2/6 2298/2/6
f 2298/2/6 2294/2/6 2299/2/6
f 2300/3/6 2301/3/6 2302/3/6
f 2302/3/6 2301/3/6 2303/3/6
f 2304/2/6 2305/2/6 2306/2/6
f 2306/2/6 2305/2/6 2307/2/6
f 2308/3/6 2309/3/6 2310/3/6
f 2310/3/6 2309/3/6 2311/3/6
f 2312/2/6 2313/2/6 2314/2/6
f 2314/2/6 2313/2/6 2315/2/6
f 2316/3/6 2317/3/6 2318/3/6
f 2318/3/6 2317/3/6 2319/3/6
f 2320/3/6 2321/3/6 2322/3/6
f 2322/3/6 2321/3/6 2323/3/6
f 2324/1/6 2325/1/6 2326/1/6
f 2326/1/6 2325/1/6 2327/1/6
f 2326/2/6 2327/2/6 2328/2/6
f 2328/2/6 2327/2/6 2329/2/6
f 2330/3/6 2331/3/6 2332/3/6
f 2332/3/6 2331/3/6 2333/3/6
f 2334/3/6 2335/3/6 2336/3/6
f 2336/3/6 2335/3/6 2337/3/6
f 2338/3/6 2339/3/6 2340/3/6
f 2340/3/6 2339/3/6 2341/3/6
f 2342/3/6 2343/3/6 2344/3/6
f 2344/3/6 2343/3/6 2345/3/6
f 2346/3/6 2347/3/6 2348/3/6
f 2348/3/6 2347/3/6 2349/3/6
f 2350/3/6 2351/3/6 2352/3/6
f 2352/3/6 2351/3/6 2353/3/6
f 2354/2/6 2355/2/6 2357/2/6
f 2357/2/6 2355/2/6 2358/2/6
f 2356/2/6 2357/2/6 2361/2/6
f 2361/2/6 2357/2/6 2362/2/6
f 2362/2/6 2357/2/6 2363/2/6
f 2358/2/6 2359/2/6 2364/2/6
f 2364/2/6 2359/2/6 2365/2/6
f 2365/2/6 2359/2/6 2366/2/6
f 2360/2/6 2361/2/6 2368/2/6
f 2361/2/6 2362/2/6 2368/2/6
f 2368/2/6 2362/2/6 2369/2/6
f 2366/2/6 2367/2/6 2370/2/6
f 2365/2/6 2366/2/6 2370/2/6
f 2370/2/6 2367/2/6 2371/2/6
f 2360/2/6 2368/2/6 2373/2/6
f 2373/2/6 2368/2/6 2374/2/6
f 2371/2/6 2367/2/6 2375/2/6
f 2375/2/6 2367/2/6 2376/2/6
f 2372/2/6 2373/2/6 2378/2/6
f 2378/2/6 2373/2/6 2379/2/6
f 2376/2/6 2377/2/6 2382/2/6
f 2382/2/6 2377/2/6 2383/2/6
f 2379/2/6 2380/2/6 2384/2/6
f 2381/2/6 2382/2/6 2387/2/6
f 2384/2/6 2385/2/6 2388/2/6
f 2379/2/6 2384/2/6 2388/2/6
f 2388/2/6 2385/2/6 2389/2/6
f 2389/2/6 2385/2/6 2390/2/6
f 2386/2/6 2387/2/6 2393/2/6
f 2387/2/6 2382/2/6 2394/2/6
f 2393/2/6 2387/2/6 2394/2/6
f 2394/2/6 2382/2/6 2395/2/6
f 2390/2/6 2391/2/6 2396/2/6
f 2389/2/6 2390/2/6 2396/2/6
f 2396/2/6 2391/2/6 2397/2/6
f 2392/2/6 2393/2/6 2398/2/6
f 2393/2/6 2394/2/6 2398/2/6
f 2398/2/6 2394/2/6 2399/2/6
f 2397/2/6 2398/2/6 2400/2/6
f 2400/2/6 2398/2/6 2401/2/6
f 2402/2/6 2403/2/6 2405/2/6
f 2405/2/6 2403/2/6 2406/2/6
f 2404/2/6 2405/2/6 2409/2/6
f 2409/2/6 2405/2/6 2410/2/6
f 2406/2/6 2407/2/6 2411/2/6
f 2411/2/6 2407/2/6 2412/2/6
f 2408/2/6 2409/2/6 2415/2/6
f 2415/2/6 2409/2/6 2416/2/6
f 2412/2/6 2413/2/6 2417/2/6
f 2417/2/6 2413/2/6 2418/2/6
f 2414/2/6 2415/2/6 2420/2/6
f 2420/2/6 2415/2/6 2421/2/6
f 2418/2/6 2419/2/6 2424/2/6
f 2424/2/6 2419/2/6 2425/2/6
f 2421/2/6 2422/2/6 2426/2/6
f 2426/2/6 2422/2/6 2427/2/6
f 2423/2/6 2424/2/6 2430/2/6
f 2430/2/6 2424/2/6 2431/2/6
f 2427/2/6 2428/2/6 2432/2/6
f 2432/2/6 2428/2/6 2433/2/6
f 2429/2/6 2430/2/6 2434/2/6
f 2434/2/6 2430/2/6 2435/2/6
f 2433/2/6 2434/2/6 2436/2/6
f 2436/2/6 2434/2/6 2437/2/6
f 2438/2/6 2439/2/6 2441/2/6
f 2441/2/6 2439/2/6 2442/2/6
f 2442/2/6 2439/2/6 2443/2/6
f 2443/2/6 2439/2/6 2444/2/6
f 2440/2/6 2441/2/6 2447/2/6
f 2441/2/6 2442/2/6 2447/2/6
f 2447/2/6 2442/2/6 2448/2/6
f 2448/2/6 2442/2/6 2449/2/6
f 2443/2/6 2444/2/6 2450/2/6
f 2444/2/6 2445/2/6 2450/2/6
f 2450/2/6 2445/2/6 2451/2/6
f 2451/2/6 2445/2/6 2452/2/6
f 2447/2/6 2448/2/6 2454/2/6
f 2446/2/6 2447/2/6 2454/2/6
f 2454/2/6 2448/2/6 2455/2/6
f 2452/2/6 2453/2/6 2456/2/6
f 2451/2/6 2452/2/6 2456/2/6
f 2456/2/6 2453/2/6 2457/2/6
f 2446/2/6 2454/2/6 2458/2/6
f 2457/2/6 2453/2/6 2461/2/6
f 2458/2/6 2459/2/6 2462/2/6
f 2446/2/6 2458/2/6 2462/2/6
f 2462/2/6 2459/2/6 2463/2/6
f 2463/2/6 2459/2/6 2464/2/6
f 2460/2/6 2461/2/6 2467/2/6
f 2461/2/6 2453/2/6 2468/2/6
f 2467/2/6 2461/2/6 2468/2/6
f 2468/2/6 2453/2/6 2469/2/6
f 2464/2/6 2465/2/6 2470/2/6
f 2463/2/6 2464/2/6 2470/2/6
f 2470/2/6 2465/2/6 2471/2/6
f 2471/2/6 2465/2/6 2472/2/6
f 2466/2/6 2467/2/6 2473/2/6
f 2467/2/6 2468/2/6 2473/2/6
f 2473/2/6 2468/2/6 2474/2/6
f 2474/2/6 2468/2/6 2475/2/6
f 2471/2/6 2472/2/6 2476/2/6
f 2473/2/6 2474/2/6 2476/2/6
f 2472/2/6 2473/2/6 2476/2/6
f 2476/2/6 2474/2/6 2477/2/6
f 2478/2/6 2479/2/6 2481/2/6
f 2481/2/6 2479/2/6 2482/2/6
f 2480/2/6 2481/2/6 2485/2/6
f 2485/2/6 2481/2/6 2486/2/6
f 2482/2/6 2483/2/6 2487/2/6
f 2487/2/6 2483/2/6 2488/2/6
f 2484/2/6 2485/2/6 2490/2/6
f 2490/2/6 2485/2/6 2491/2/6
f 2488/2/6 2489/2/6 2494/2/6
f 2494/2/6 2489/2/6 2495/2/6
f 2491/2/6 2492/2/6 2496/2/6
f 2496/2/6 2492/2/6 2497/2/6
f 2493/2/6 2494/2/6 2498/2/6
f 2498/2/6 2494/2/6 2499/2/6
f 2497/2/6 2498/2/6 2500/2/6
f 2500/2/6 2498/2/6 2501/2/6
f 2502/2/6 2503/2/6 2505/2/6
f 2505/2/6 2503/2/6 2506/2/6
f 2504/2/6 2505/2/6 2508/2/6
f 2508/2/6 2505/2/6 2509/2/6
f 2506/2/6 2507/2/6 2510/2/6
f 2510/2/6 2507/2/6 2511/2/6
f 2509/2/6 2510/2/6 2512/2/6
f 2512/2/6 2510/2/6 2513/2/6
f 2514/2/6 2515/2/6 2516/2/6
f 2516/2/6 2515/2/6 2517/2/6
